t_sec_min,t_sec_max,f_hz_min,f_hz_max,tonal_id
0.37,0.43,7042,7585,1
0.88,0.9,8579,9541,2
1.2,1.26,26326,28439,3
2.01,2.08,27791,29758,4
2.48,2.53,29238,30180,5
3.82,3.99,24349,25027,6
4.8,4.83,8825,9306,7
5.83,6.48,11455,17631,8
6.21,6.58,8197,12849,9
6.3,6.41,8782,8911,10
6.54,6.58,21310,22458,11
6.6,6.62,14277,16964,12
6.65,6.68,14399,16637,13
6.72,7.05,8800,12511,14
6.76,6.94,17519,18281,15
6.77,7.01,9448,12083,16
6.96,7.02,18420,21145,17
7.03,7.35,12632,16850,18
7.08,7.18,11100,13658,19
7.21,7.48,8685,13997,20
7.22,7.53,8837,10385,21
7.75,8.01,10158,13982,22
7.76,7.82,41827,44177,23
7.86,8.1,8778,14228,24
8.21,8.54,7510,11642,25
8.22,8.45,10543,13145,26
8.61,8.62,11139,11437,27
8.62,8.64,9734,10630,28
9.26,9.31,24202,26346,29
9.28,9.32,26346,28013,30
9.57,9.95,8320,12300,31
10.02,10.11,10496,13412,32
10.19,10.31,8427,9152,33
10.36,10.38,9447,10513,34
10.44,10.47,9655,11345,35
10.54,10.74,9509,11961,36
10.74,10.8,10875,12706,37
10.92,11.06,13874,14320,38
12.59,12.73,28851,30115,39
12.8,12.85,8260,11448,40
12.91,12.93,11717,12717,41
12.96,13.77,7095,13761,42
13.62,13.7,42360,44202,43
13.83,14.14,11616,14938,44
13.91,14.09,6367,13304,45
14.12,14.16,14132,15766,46
14.18,14.2,8089,9331,47
14.21,14.52,6673,13446,48
14.58,14.63,11108,12139,49
15.09,15.11,7902,9451,50
15.29,15.36,8814,13297,51
15.38,15.42,14662,16654,52
15.45,15.49,12119,13261,53
15.55,15.56,10574,11947,54
15.57,15.85,8452,11519,55
15.63,15.64,9871,10553,56
15.96,16.7,6012,13434,57
16.67,16.68,13445,14336,58
16.72,16.73,11766,12329,59
16.74,16.75,11442,11442,60
18.46,18.69,7816,11548,61
18.59,18.67,25181,28509,62
18.71,18.79,11629,12175,63
18.81,19.22,7058,15768,64
19.2,19.42,9382,13070,65
19.24,19.53,9340,14072,66
19.3,19.72,7893,14464,67
19.49,19.6,12535,13100,68
19.63,19.71,8171,11778,69
19.77,20.06,8581,13305,70
19.79,19.83,20113,22440,71
20.08,20.15,7629,11245,72
20.19,20.43,7246,12840,73
20.55,20.6,7358,7856,74
20.6,20.93,8117,13463,75
21.08,21.11,11972,13240,76
21.45,21.76,10732,17882,77
21.91,22.0,8068,8685,78
22.1,22.19,9832,11860,79
22.53,22.66,9712,13896,80
23.2,23.54,8695,14549,81
23.3,23.32,5813,6867,82
23.37,23.43,5496,7078,83
23.67,23.81,7116,8355,84
23.8,23.97,6854,10165,85
23.99,24.19,10653,14259,86
24.05,24.13,11723,13861,87
24.23,24.26,14226,14838,88
24.47,24.55,7249,7568,89
24.56,24.65,8582,9785,90
24.7,24.75,13219,13404,91
24.86,25.0,5880,9858,92
25.35,25.43,9068,11369,93
26.12,26.32,7811,9434,94
26.35,26.44,10035,12412,95
26.55,26.68,6335,7560,96
27.99,28.06,9659,11412,97
29.77,29.85,7755,9088,98
30.23,30.34,37606,39341,99
30.27,30.38,9835,10567,100
31.08,31.2,8018,11114,101
32.15,32.23,7947,8398,102
32.24,32.29,9149,11478,103
33.08,33.22,5009,6387,104
33.31,33.52,7644,9188,105
33.37,33.78,10167,12051,106
33.57,33.62,9520,9889,107
33.67,33.73,13755,14334,108
33.73,33.94,8980,9756,109
33.75,34.33,7527,13184,110
33.78,33.81,10151,11319,111
34.09,34.31,10035,11582,112
34.38,34.43,11236,12810,113
34.4,34.48,12859,13730,114
35.1,35.96,7373,13351,115
35.12,35.19,19303,24540,116
35.34,35.43,9323,11321,117
35.44,35.48,11678,12573,118
35.58,35.65,12989,13951,119
35.67,35.78,18668,21008,120
35.7,35.79,7807,10197,121
35.77,35.85,10513,12868,122
35.81,35.9,8916,13625,123
35.83,35.85,7541,10597,124
35.87,35.98,12958,13308,125
35.88,35.91,6700,8270,126
35.9,35.98,14818,16959,127
35.91,36.04,5400,5428,128
35.92,36.15,8866,11088,129
35.99,36.09,8803,12184,130
36.02,36.21,9398,14094,131
36.09,36.35,5430,10614,132
36.19,36.32,11902,13854,133
36.23,36.29,18382,20010,134
36.32,36.36,9348,10690,135
36.35,36.44,11316,17708,136
36.36,36.46,8954,11296,137
36.4,36.48,15601,16570,138
36.4,36.47,8937,12566,139
36.45,36.66,8239,19071,140
36.49,36.61,14956,16761,141
36.51,36.53,9011,12951,142
36.52,36.61,8290,9854,143
36.54,36.72,7398,9876,144
36.54,36.6,9570,10678,145
36.58,36.74,11557,12200,146
36.61,36.64,10776,12695,147
36.62,36.69,8838,11181,148
36.7,37.03,8972,15379,149
36.71,36.76,23431,24357,150
36.73,36.75,10339,10930,151
36.82,36.88,13723,14474,152
36.9,37.54,11963,13264,153
37.06,37.15,7486,9787,154
37.12,37.19,6429,6903,155
37.35,37.4,7388,7637,156
37.63,37.72,6919,8035,157
37.68,37.76,8493,11947,158
37.8,38.11,12433,12932,159
37.95,37.99,12059,14054,160
37.98,38.04,9778,11073,161
38.08,38.25,11738,16444,162
38.14,38.17,9784,11623,163
38.18,38.2,7446,8630,164
38.2,38.23,14168,16285,165
38.24,38.29,7622,10772,166
38.32,38.44,12012,12561,167
38.75,39.3,8867,16455,168
39.39,39.5,7799,8294,169
39.61,39.73,9223,11479,170
39.75,39.95,11996,16036,171
39.85,40.41,7207,13423,172
40.14,40.23,7504,8186,173
40.38,40.43,11248,13154,174
40.44,40.49,14435,16745,175
40.74,40.85,9108,10752,176
40.89,40.93,11926,12974,177
41.53,41.57,11714,12137,178
41.62,41.81,10828,18219,179
41.97,42.08,7410,11941,180
42.63,42.71,9835,16615,181
42.75,43.01,9739,14286,182
42.97,43.0,8328,14325,183
43.25,43.59,8731,15612,184
43.67,43.77,6659,7009,185
43.74,44.03,6949,9865,186
43.8,43.84,10698,12753,187
44.08,44.16,12076,15671,188
44.17,44.36,14358,17815,189
44.94,45.12,9360,11547,190
45.2,45.26,13194,14629,191
45.23,45.43,7034,7996,192
45.75,45.86,7797,10816,193
46.0,46.04,5949,6766,194
46.09,46.16,8294,10532,195
46.54,46.94,13132,13285,196
46.55,46.73,9189,11669,197
46.93,46.96,6381,6702,198
47.04,47.31,9626,12206,199
47.27,47.42,12916,13447,200
47.29,47.37,5936,7380,201
47.4,47.44,6639,7488,202
47.42,47.48,10515,12175,203
47.75,47.79,10573,12495,204
48.25,48.65,8972,14161,205
48.7,48.75,13291,14264,206
48.78,48.8,8436,10612,207
48.78,49.29,5022,14177,208
49.47,50.14,10312,14422,209
49.79,49.87,9560,9845,210
49.97,50.11,7277,8308,211
50.23,50.31,8527,9505,212
50.29,50.41,12812,13126,213
50.31,50.77,10176,14746,214
50.98,51.22,7045,8586,215
51.07,51.16,15928,17016,216
51.22,51.6,9628,13662,217
51.75,51.81,8124,8809,218
52.17,52.22,14009,15997,219
52.18,52.23,12051,13831,220
52.28,52.32,17777,17777,221
52.34,52.52,19889,21078,222
52.66,52.74,12846,13482,223
52.66,52.78,5275,7788,224
53.14,53.23,15453,16794,225
53.7,53.83,38113,38330,226
54.57,54.63,8273,8684,227
57.87,58.15,5961,9020,228
59.02,59.11,8512,10347,229
62.89,62.92,10034,11604,230
68.44,68.54,6225,8575,231
69.01,69.05,9427,9642,232
69.17,69.19,11391,11750,233
69.94,70.36,8902,14375,234
70.33,70.36,17457,18017,235
70.45,70.5,17861,18050,236
70.54,70.62,8009,8514,237
70.56,70.77,13129,13788,238
70.64,70.72,8647,9651,239
70.73,71.03,9108,10468,240
70.74,70.91,9722,12670,241
70.78,70.93,9694,12927,242
70.8,70.91,13314,13590,243
70.95,71.05,13590,13645,244
70.96,70.98,12429,13562,245
71.0,71.19,16684,18453,246
71.31,71.53,9315,10992,247
71.41,72.0,9768,13461,248
72.14,72.89,9833,15568,249
72.22,72.38,10328,12206,250
72.42,72.48,12597,14133,251
72.77,72.9,17908,20178,252
72.78,73.17,8198,13789,253
73.3,73.45,9092,12148,254
73.32,73.45,10694,13593,255
73.5,73.67,17667,18112,256
73.74,73.82,14019,16750,257
74.4,74.96,9035,13481,258
74.49,74.92,18765,25777,259
74.69,74.87,10065,10065,260
74.96,75.01,16060,16334,261
75.05,75.21,17840,17937,262
75.06,75.15,11041,12375,263
75.49,75.77,10559,11117,264
75.56,75.71,9487,9807,265
76.01,76.17,10262,11021,266
76.08,76.17,10329,11429,267
76.31,76.46,13214,13459,268
76.67,76.78,10167,12180,269
77.05,77.3,8874,12396,270
78.29,78.43,9521,11964,271
78.77,79.26,9038,14270,272
79.43,79.6,8946,10900,273
79.9,80.37,9395,12328,274
80.27,80.35,11550,14346,275
80.55,80.58,11785,12409,276
80.84,81.03,18186,20811,277
81.69,81.75,5812,7046,278
81.8,81.98,9777,11596,279
81.82,82.01,6048,9070,280
82.35,82.47,7896,9834,281
82.43,82.91,18997,27325,282
82.43,82.73,9534,10824,283
82.43,82.68,28630,31888,284
82.54,82.59,11161,12169,285
82.63,82.66,13204,14797,286
82.74,82.79,6141,7653,287
82.75,82.96,11154,14166,288
82.82,83.08,8928,10415,289
82.9,82.98,18285,19646,290
82.96,83.01,16130,16721,291
82.98,83.04,10294,11205,292
83.01,83.22,17722,18090,293
83.04,83.12,8112,10622,294
83.06,83.14,11812,15889,295
83.12,83.41,11479,14876,296
83.15,83.2,12578,13460,297
83.18,83.28,22050,22684,298
83.28,83.35,5129,8260,299
83.3,83.3,10482,12542,300
83.31,83.34,13385,13715,301
83.31,83.37,7799,9545,302
83.36,83.43,19301,20766,303
83.38,83.47,10285,11554,304
83.38,83.7,8863,13431,305
83.4,83.43,18083,18717,306
83.44,83.7,18426,26948,307
83.49,83.55,19094,20289,308
83.49,83.66,11626,14307,309
83.5,83.64,4970,8010,310
83.51,83.58,18114,18749,311
83.56,83.65,9275,10111,312
83.58,83.63,8927,9693,313
83.63,83.71,19962,23639,314
83.66,83.67,9414,9972,315
83.66,83.89,10320,14989,316
83.68,83.68,11749,12655,317
83.68,83.72,10390,11819,318
83.69,83.71,13874,14850,319
83.71,83.74,15465,15547,320
83.72,83.81,24325,27442,321
83.72,83.89,18508,19937,322
83.73,83.9,9310,9623,323
83.73,83.75,16511,16940,324
83.75,84.04,7859,9402,325
83.75,83.79,17568,17813,326
83.76,83.84,14258,15447,327
83.85,84.13,5475,8021,328
83.9,84.08,10861,11759,329
83.91,83.95,19310,19310,330
83.97,84.0,19727,21226,331
83.98,84.2,9861,17607,332
84.05,84.28,9382,14509,333
84.06,84.07,12895,13478,334
84.07,84.25,13365,13930,335
84.09,84.16,14041,14509,336
84.1,84.29,6726,10046,337
84.1,84.22,8807,10332,338
84.11,84.22,17496,20410,339
84.19,84.23,12701,13328,340
84.21,84.27,20770,22318,341
84.24,84.28,11853,12554,342
84.25,84.28,24023,24932,343
84.28,84.33,13808,16685,344
84.29,84.57,7687,8907,345
84.3,84.31,10673,11853,346
84.3,84.46,9750,13550,347
84.32,84.35,24565,25598,348
84.32,84.34,12369,13734,349
84.35,84.37,8720,10660,350
84.35,84.48,14545,17718,351
84.37,84.54,9469,9811,352
84.41,84.53,8788,12872,353
84.51,84.63,13790,15560,354
84.54,84.59,14301,17771,355
84.55,84.6,7665,13960,356
84.59,84.61,9707,10524,357
84.6,84.84,6493,7851,358
84.61,84.81,12776,13813,359
84.75,84.86,14054,15843,360
84.81,84.86,11597,11949,361
84.82,85.08,6158,7617,362
84.88,85.11,8537,9297,363
84.88,84.99,12828,13136,364
84.91,84.95,9963,10189,365
84.94,85.08,15158,15334,366
84.98,85.17,13610,14150,367
84.99,85.1,18209,18558,368
85.02,85.1,8219,8602,369
85.11,85.51,19101,23084,370
85.11,85.18,9646,10503,371
85.11,85.18,19625,20831,372
85.11,85.54,9107,11597,373
85.13,85.47,18152,21228,374
85.14,85.46,9531,10938,375
85.18,85.23,11264,13293,376
85.18,85.24,5399,6761,377
85.19,85.21,22937,24646,378
85.19,85.28,18152,18592,379
85.21,85.57,30512,37814,380
85.28,85.41,41153,43605,381
85.41,85.48,13136,13763,382
85.46,85.7,5663,10695,383
85.48,85.89,17853,19727,384
85.48,85.56,9947,11076,385
85.49,85.71,5179,9566,386
85.5,85.77,8948,9469,387
85.51,85.52,7509,8432,388
85.52,85.54,5443,6805,389
85.54,85.57,23851,25022,390
85.54,85.6,11941,13738,391
85.56,85.72,9565,10566,392
85.56,85.62,27088,29843,393
85.58,85.81,25986,30049,394
85.61,86.01,13554,17333,395
85.64,85.64,19484,19927,396
85.66,85.87,20576,21643,397
85.76,85.77,5856,7792,398
85.81,85.86,18404,19533,399
85.82,85.87,36344,36526,400
85.84,85.98,9456,10135,401
85.85,85.93,5311,5632,402
85.86,85.94,7416,9566,403
85.89,86.0,12792,13442,404
85.89,85.91,21787,22880,405
85.91,85.93,11179,13275,406
85.95,85.96,14181,14690,407
85.96,86.26,5477,6738,408
86.01,86.11,10614,14435,409
86.01,86.02,8077,8939,410
86.01,86.07,18506,19692,411
86.01,86.34,6201,8789,412
86.01,86.17,9475,11198,413
86.06,86.17,19006,22025,414
86.08,86.13,18482,19405,415
86.11,86.26,9375,12431,416
86.12,86.16,15203,16211,417
86.2,86.24,23974,24301,418
86.21,86.25,21726,24079,419
86.23,86.25,12949,13591,420
86.27,86.28,11522,12124,421
86.27,86.42,12378,15438,422
86.28,86.33,24991,26967,423
86.28,86.85,10130,14433,424
86.29,86.84,20283,25881,425
86.31,86.47,16578,18698,426
86.38,86.57,9019,12583,427
86.38,86.73,13001,14572,428
86.43,86.47,7547,8743,429
86.44,86.46,16386,17822,430
86.46,86.51,10411,11717,431
86.52,86.59,9047,10478,432
86.56,86.59,5732,7910,433
86.59,86.97,5463,9161,434
86.6,86.74,11105,15937,435
86.61,86.66,9303,9645,436
86.67,86.75,9787,11750,437
86.69,86.7,10512,11014,438
86.69,86.74,6914,6971,439
86.71,86.99,6285,8479,440
86.72,86.76,9645,11295,441
86.75,86.88,16868,17325,442
86.76,86.79,12262,15021,443
86.76,86.78,15220,16273,444
86.8,86.83,16728,18975,445
86.87,86.91,13939,14562,446
87.04,87.86,9782,14931,447
87.04,87.12,9657,10212,448
87.04,87.09,29035,30510,449
87.05,87.11,19501,20607,450
87.08,87.11,10966,11550,451
87.1,87.34,6469,7124,452
87.11,87.55,19768,23548,453
87.12,87.16,11309,14028,454
87.19,87.87,7355,16955,455
87.32,87.4,6023,6023,456
87.38,87.53,19681,20563,457
87.42,87.64,7052,8561,458
87.44,87.57,14225,15242,459
87.58,87.63,23798,24476,460
87.65,87.92,9410,10239,461
87.65,87.68,6930,7702,462
87.65,87.74,24783,26264,463
87.66,88.21,18943,27004,464
87.66,87.75,28209,29236,465
87.8,87.89,7715,8698,466
87.84,87.93,30577,31346,467
87.87,87.94,12999,13333,468
87.89,88.16,11016,15304,469
87.91,87.93,8008,11113,470
87.92,87.94,15842,18684,471
87.95,88.51,7307,16835,472
87.96,88.26,17933,20346,473
87.98,88.14,15615,18252,474
87.99,88.19,6130,6924,475
88.0,88.6,9431,19612,476
88.02,88.07,5290,5727,477
88.04,88.08,7177,7937,478
88.1,88.21,11880,13430,479
88.11,88.49,20167,29313,480
88.12,88.19,36977,40037,481
88.14,88.25,8704,9041,482
88.19,88.2,16173,16966,483
88.19,88.2,13912,15921,484
88.22,88.5,6311,8100,485
88.22,88.23,14036,14051,486
88.22,88.49,15958,19807,487
88.22,88.26,18361,19210,488
88.23,88.26,12738,13820,489
88.24,88.26,14267,14354,490
88.27,88.34,20791,24025,491
88.28,88.32,10152,10428,492
88.28,88.41,35944,36136,493
88.28,88.45,20286,20672,494
88.29,88.72,4993,8845,495
88.32,88.43,7396,8999,496
88.33,88.42,12961,13497,497
88.34,88.42,33497,33535,498
88.36,88.51,9990,11549,499
88.37,88.4,25479,26814,500
88.43,88.65,17532,20124,501
88.43,88.65,9371,11681,502
88.44,88.47,29483,31430,503
88.47,88.62,8826,9068,504
88.62,89.1,9129,16459,505
88.63,88.96,19151,27219,506
88.64,88.69,8803,8958,507
88.66,88.73,13263,18317,508
88.66,88.79,17507,20365,509
88.67,88.79,12044,14299,510
88.76,88.88,13171,13941,511
88.79,89.36,9785,13089,512
88.8,88.82,14408,14931,513
88.84,89.32,19564,25575,514
88.97,89.17,15921,19441,515
88.98,89.06,27728,29426,516
89.0,89.12,34597,35424,517
89.11,89.15,36027,37194,518
89.18,89.35,8711,10170,519
89.23,89.34,17814,20356,520
89.31,89.35,6168,6743,521
89.31,89.4,7669,8455,522
89.33,89.54,8890,13368,523
89.35,89.38,9888,10323,524
89.39,89.48,11774,16457,525
89.52,89.59,11597,12397,526
89.52,89.55,14962,16531,527
89.59,89.67,9175,9654,528
89.61,89.78,19532,20533,529
89.63,89.71,9779,9966,530
89.66,89.84,10013,13599,531
89.73,90.07,9065,11155,532
89.83,89.99,10758,14112,533
89.84,89.93,12777,15224,534
89.86,89.91,22532,24238,535
90.01,90.04,14653,16204,536
90.16,90.24,18431,18900,537
90.29,90.48,5004,6266,538
90.4,90.6,7596,13065,539
90.4,90.45,9478,13134,540
90.44,90.6,10783,14290,541
90.46,90.54,17836,21743,542
90.46,90.52,22281,23366,543
90.51,90.58,6520,7329,544
90.55,90.6,19676,24378,545
90.55,90.61,21969,27009,546
90.55,90.62,9148,11663,547
90.57,90.59,25423,27716,548
90.58,90.62,20780,23442,549
90.59,90.64,10473,11079,550
90.65,90.74,10024,15279,551
90.7,90.91,12000,15526,552
90.71,90.84,18043,24348,553
90.82,91.08,9010,9631,554
90.92,90.93,16132,16828,555
90.93,90.94,17371,18163,556
90.95,90.96,18877,19187,557
90.97,91.08,10034,19613,558
91.17,91.25,9915,11570,559
91.28,91.32,12412,14367,560
91.35,91.66,10187,12067,561
91.36,91.62,7516,13822,562
91.38,91.41,12274,13439,563
91.42,91.43,12642,13488,564
91.44,91.5,13959,14504,565
91.51,91.87,9041,10616,566
91.51,91.67,17980,18542,567
91.52,91.68,9281,12207,568
91.69,91.72,12894,16312,569
91.7,91.73,13135,15630,570
91.73,91.78,16317,16794,571
91.82,91.84,23496,24974,572
91.83,92.23,10787,15532,573
91.83,91.9,13618,15146,574
91.85,92.01,21578,22919,575
92.07,92.13,26184,27078,576
92.28,92.32,16868,17771,577
92.36,92.83,5484,13727,578
92.43,92.59,13551,15704,579
92.67,92.7,13014,14868,580
92.67,93.0,8558,11159,581
92.72,92.99,17105,18589,582
92.76,92.87,15451,17362,583
93.0,93.06,9572,12818,584
93.06,93.08,12565,14441,585
93.15,93.18,8736,12437,586
93.18,93.74,8125,16600,587
93.18,93.23,16788,17273,588
93.19,93.21,9577,10979,589
93.2,93.7,9123,11570,590
93.23,93.56,8680,9269,591
93.37,93.85,5468,9239,592
93.39,93.55,26254,26796,593
93.43,93.49,19931,21840,594
93.43,93.77,11093,20217,595
93.44,93.54,17472,17812,596
93.47,93.86,6235,11432,597
93.5,93.81,15792,17521,598
93.5,93.72,23006,29583,599
93.53,93.98,7925,12235,600
93.54,93.61,24939,27317,601
93.71,93.74,9655,10443,602
93.75,93.78,10129,13574,603
93.79,93.85,13255,19628,604
93.8,93.85,15135,17323,605
93.83,93.91,26202,28706,606
93.84,93.93,12056,14437,607
93.91,93.98,10721,12325,608
93.92,93.95,13205,13518,609
93.93,93.99,6834,9091,610
93.95,94.01,14172,15165,611
93.99,94.05,12700,17332,612
94.0,94.07,6927,13048,613
94.04,94.05,15713,15949,614
94.07,94.46,6067,10206,615
94.14,94.35,7070,8845,616
94.47,94.51,11148,11684,617
94.49,94.51,13615,13990,618
94.52,94.57,14553,18977,619
94.52,94.67,12435,15223,620
94.61,94.97,9995,18763,621
94.98,95.08,12271,16169,622
95.42,95.49,11704,12454,623
95.44,95.63,7034,11407,624
95.5,95.59,11392,11413,625
96.06,96.12,9578,10202,626
96.24,96.29,11940,12727,627
96.28,96.33,7025,8428,628
96.65,96.95,6916,8911,629
96.67,96.75,9415,9986,630
96.97,97.07,9401,13649,631
97.76,97.82,11901,13038,632
97.77,98.04,8808,10598,633
97.99,98.54,7702,18486,634
98.1,98.38,22322,28538,635
98.41,98.54,27366,28145,636
98.62,98.66,6159,6185,637
98.74,98.78,8937,11201,638
98.75,98.92,7418,9424,639
98.96,99.01,11664,12899,640
99.04,99.09,9523,11533,641
99.08,99.14,7238,8779,642
99.1,99.31,11564,13498,643
99.16,99.58,8743,16151,644
99.19,99.36,9642,13549,645
99.47,99.79,7506,17204,646
99.56,99.63,9518,12647,647
99.61,99.68,17435,19649,648
99.68,99.81,11718,13021,649
99.69,99.73,8347,11612,650
99.7,99.75,11506,13886,651
99.72,100.15,7471,17275,652
99.87,99.92,18402,19602,653
100.03,100.22,8162,11952,654
100.04,100.07,21481,23465,655
100.04,100.55,9945,13618,656
100.07,100.5,19908,26050,657
100.2,100.23,22518,24726,658
100.37,100.42,17234,19038,659
100.4,100.66,7010,8410,660
100.43,100.5,8973,10405,661
100.46,100.71,17721,21776,662
100.51,100.91,10754,19128,663
100.58,100.9,7133,9756,664
100.66,100.77,25386,29769,665
100.69,101.14,9726,15297,666
100.69,100.82,7995,8734,667
100.73,101.07,19462,27171,668
100.73,100.89,9197,14614,669
100.83,100.95,7792,10643,670
100.89,100.93,11870,13161,671
100.89,100.91,31242,32195,672
100.93,100.94,11367,12058,673
100.94,100.97,11618,13945,674
100.95,101.0,33856,36033,675
100.99,101.23,11272,20353,676
101.3,101.33,16023,17416,677
101.34,101.38,8326,8865,678
101.35,101.36,12122,12747,679
101.37,101.91,7405,16454,680
101.68,101.85,23460,29186,681
101.93,101.95,17258,19183,682
101.99,102.58,7243,17166,683
102.04,102.16,14612,17697,684
102.2,102.26,11362,13647,685
102.26,102.62,20113,23750,686
102.28,102.67,10072,13801,687
102.78,102.86,15327,16647,688
102.8,102.84,11859,13342,689
102.93,102.98,14986,17361,690
103.17,103.23,11463,13332,691
103.33,103.38,9298,11791,692
103.47,103.84,8463,12217,693
103.53,103.54,7734,8788,694
103.55,103.58,6277,7219,695
103.69,103.75,6828,8372,696
104.23,104.77,9018,15464,697
104.23,104.72,18163,29255,698
104.25,104.67,27515,39582,699
104.28,104.55,37009,44926,700
104.77,104.83,16228,16587,701
104.78,105.07,9865,15463,702
104.83,104.93,17427,18561,703
105.01,105.31,8854,14341,704
105.03,105.06,17915,18178,705
105.08,105.2,18625,20973,706
105.3,105.37,15889,16584,707
105.3,105.42,13201,15589,708
105.34,105.36,18261,18463,709
105.38,105.48,17622,20738,710
105.41,105.45,20316,20465,711
105.57,105.69,7757,8205,712
105.58,105.78,15772,19578,713
105.68,105.81,8760,11265,714
105.72,105.79,8496,9794,715
105.76,105.93,7343,12475,716
105.8,105.82,10401,10899,717
105.83,106.22,11379,22105,718
105.85,105.89,10819,10927,719
105.88,105.97,23113,25382,720
105.88,105.92,24001,25861,721
105.88,106.08,12029,17954,722
106.0,106.16,16073,19354,723
106.04,106.15,6578,9936,724
106.19,106.52,12696,17898,725
106.19,106.46,11399,18913,726
106.4,106.45,10437,14096,727
106.54,106.72,12791,15191,728
106.57,106.59,13759,14769,729
106.73,106.79,9342,12150,730
106.85,106.89,7160,8117,731
106.89,107.1,6479,15434,732
107.11,107.2,17284,19889,733
107.2,107.31,18227,20698,734
107.32,107.51,9898,14634,735
107.48,108.06,8435,19508,736
107.58,107.83,16704,22698,737
107.84,107.91,9090,10571,738
107.92,107.97,18955,19255,739
107.92,108.43,9528,13054,740
107.95,108.03,25477,32133,741
107.98,108.38,19672,27693,742
107.99,108.44,9079,14945,743
108.44,108.57,12958,16163,744
108.45,108.46,16142,16420,745
108.49,108.54,18065,18193,746
108.55,108.6,15473,17392,747
108.56,108.6,18295,18441,748
108.69,108.74,9017,12593,749
108.74,108.84,17643,19323,750
108.75,108.94,9182,12073,751
108.84,109.17,10151,13981,752
108.95,108.98,12312,13027,753
108.99,109.02,13862,14282,754
109.06,109.08,16157,16336,755
109.15,109.34,7923,17319,756
109.29,109.61,9051,14309,757
109.38,109.8,7706,21296,758
109.52,109.55,15583,16938,759
109.56,109.58,14340,14905,760
109.65,109.66,16186,16351,761
109.68,109.71,17339,17701,762
109.7,109.73,5489,9254,763
109.73,109.94,5010,15943,764
109.75,109.78,14276,17240,765
109.76,109.97,19019,24727,766
109.8,109.81,19892,20362,767
109.82,111.39,6045,19441,768
110.38,110.41,18252,20669,769
110.41,110.49,13790,17134,770
110.5,110.52,16288,17859,771
110.54,110.58,19611,23268,772
110.7,110.9,5873,12281,773
110.81,111.1,8832,12359,774
110.82,111.11,7795,14077,775
110.82,111.21,17589,26740,776
110.84,110.87,15713,16261,777
110.88,111.02,12160,17636,778
110.88,110.92,17367,19063,779
110.9,110.95,12947,14726,780
110.93,111.01,30798,35769,781
110.94,111.08,20683,27594,782
111.05,111.07,14284,16072,783
111.05,111.13,14701,17451,784
111.1,111.16,15370,17376,785
111.14,111.18,7802,7952,786
111.23,111.4,7084,10017,787
111.42,111.44,10248,11657,788
111.42,111.44,11701,12254,789
111.43,111.93,8769,14661,790
111.43,111.45,7983,8901,791
111.44,111.5,14299,18760,792
111.46,111.61,17598,20347,793
111.53,111.53,17694,18360,794
111.53,111.54,16081,17048,795
111.54,111.62,13661,15391,796
111.7,111.74,20984,21630,797
111.8,112.33,9997,13805,798
111.81,112.32,20094,24175,799
111.83,112.18,30083,32039,800
112.01,112.11,6062,8522,801
112.01,112.11,5979,8820,802
112.03,112.11,12929,15648,803
112.03,112.11,12987,15429,804
112.12,112.14,10610,11930,805
112.12,112.14,6899,8493,806
112.27,112.37,13884,15976,807
112.34,112.36,16174,17301,808
112.36,112.38,15310,16474,809
112.42,112.9,9548,14354,810
112.42,112.89,19101,28276,811
112.44,112.47,10065,13218,812
112.51,113.5,9993,13936,813
112.51,113.48,20013,27807,814
112.54,113.12,30015,33402,815
112.56,112.57,9036,9565,816
112.57,112.71,7571,9472,817
112.6,112.69,5387,6168,818
112.62,112.9,40137,41110,819
112.66,112.81,11778,13617,820
112.66,112.69,8550,10068,821
112.71,113.08,6324,8786,822
112.72,112.8,11005,11273,823
112.79,112.86,11564,12656,824
112.83,112.94,13632,14608,825
112.87,113.06,9106,13694,826
112.92,112.96,16935,16992,827
112.93,112.99,10467,14840,828
112.98,113.13,17681,17968,829
112.99,113.02,4878,6613,830
113.02,113.13,5504,6192,831
113.07,113.31,5783,12359,832
113.1,113.17,8547,10307,833
113.11,113.8,7388,18057,834
113.14,113.22,11368,18013,835
113.16,113.45,36708,41771,836
113.17,113.19,4937,6271,837
113.21,113.29,7387,8391,838
113.22,113.31,14518,18602,839
113.24,113.6,8879,15978,840
113.25,113.49,10390,15749,841
113.29,113.36,7047,7100,842
113.32,113.83,10305,18312,843
113.38,113.79,20565,27618,844
113.4,113.56,19488,27208,845
113.42,113.66,30869,32056,846
113.42,113.47,28298,30785,847
113.42,113.52,4950,5897,848
113.44,113.57,9198,11566,849
113.52,113.62,10978,13939,850
113.57,113.66,5323,9889,851
113.58,113.62,8492,9933,852
113.62,113.8,6117,7334,853
113.63,113.65,24438,25754,854
113.68,113.71,9573,10241,855
113.77,113.95,7491,9676,856
113.86,114.38,7183,18633,857
113.89,114.22,9386,14720,858
113.95,114.31,10136,16284,859
113.96,114.05,5005,5941,860
113.98,114.15,13054,16718,861
114.0,114.15,27488,32312,862
114.02,114.1,42937,46531,863
114.06,114.13,23774,25906,864
114.11,114.2,19540,22837,865
114.15,114.26,19311,20590,866
114.26,114.28,21800,22146,867
114.32,114.39,17210,20056,868
114.46,114.54,16420,19069,869
114.48,114.54,5775,5893,870
114.83,114.86,13654,17741,871
115.11,115.14,11162,12150,872
115.16,115.18,13456,14362,873
115.28,116.02,9345,18245,874
115.28,115.8,18619,28985,875
115.29,115.67,28159,35177,876
115.3,115.36,37963,40788,877
115.78,115.88,6647,7720,878
115.95,116.19,5797,12091,879
116.12,116.53,8533,15171,880
116.14,116.49,17110,29769,881
116.15,116.34,25244,32520,882
116.46,116.5,42760,45153,883
116.51,116.67,17198,20814,884
116.56,116.62,11549,14812,885
116.6,116.65,11402,12585,886
116.74,116.96,8508,11344,887
116.76,116.88,17252,20130,888
116.78,116.82,35195,36232,889
116.86,116.9,29161,31075,890
116.89,116.9,20783,21249,891
116.9,116.95,20715,22079,892
116.92,117.07,12420,15933,893
117.03,117.04,29285,30206,894
117.07,117.12,17551,18316,895
117.13,117.22,19103,20898,896
117.24,117.28,5577,6047,897
117.41,117.56,6232,6723,898
117.8,118.32,4941,12655,899
117.89,118.02,11784,15534,900
118.04,118.07,15984,17170,901
118.15,118.24,9932,13008,902
118.31,118.53,9775,10124,903
118.42,118.51,10055,11897,904
118.52,118.66,11708,12784,905
118.66,118.82,7988,14468,906
118.67,118.91,9127,9572,907
118.72,119.33,6444,13797,908
118.97,119.09,12043,15761,909
118.99,119.22,9020,10536,910
119.2,119.78,8014,15287,911
119.23,119.24,10728,11057,912
119.25,119.6,9001,10766,913
119.31,119.46,16662,19776,914
119.43,119.49,5558,5687,915
119.44,119.73,30343,30473,916
119.5,119.77,22265,27017,917
119.65,119.74,5278,5750,918
119.71,119.99,5032,9118,919
119.72,119.88,10930,13239,920
119.78,119.87,11394,14359,921
119.79,119.82,16242,16707,922
119.85,119.86,16973,18202,923
119.87,119.9,18999,19563,924
119.88,119.98,7247,11281,925
119.91,119.96,16940,19537,926
119.97,119.99,11589,14349,927
