"t_sec_min","t_sec_max","f_hz_min","f_hz_max","tonal_id"
3.03,3.06,0,562,1
3.25,3.29,0,562,2
3.38,3.42,8438,9375,3
3.42,3.46,9188,9938,4
3.5,3.75,10312,17438,5
3.75,3.85,14625,17438,12
3.82,3.88,27750,32250,6
3.85,3.9,11438,15000,11
3.86,3.89,3375,4312,7
3.89,4.04,8625,13875,13
3.92,3.95,3375,3938,8
3.98,4.02,27750,30188,9
4,4.07,15000,19500,10
4.04,4.08,7125,8812,14
4.35,4.4,8438,10688,15
4.39,4.43,11062,13875,16
4.43,4.5,13875,16500,19
4.47,4.52,13500,15938,18
4.47,4.5,32062,33000,17
4.49,4.53,16312,17250,20
4.52,4.6,12000,16875,21
4.73,4.77,0,562,22
5.9,5.93,0,375,23
6.22,6.56,10688,17625,24
6.56,6.73,8625,13875,25
6.58,6.61,24188,26438,30
6.6,6.78,14250,24750,31
6.67,6.72,26438,29625,29
6.7,6.74,0,375,26
6.72,6.76,22875,26625,28
6.73,6.79,6750,8625,32
6.73,6.75,31500,34312,27
7.8,7.84,0,188,33
8.27,8.31,0,188,34
8.53,8.57,0,188,35
9.08,9.12,0,375,36
10.35,10.39,0,375,37
10.41,10.44,0,188,38
12.3,12.33,0,375,39
12.36,12.42,0,375,40
12.44,12.5,0,375,41
13.51,13.54,0,375,42
14.82,14.86,0,562,43
15.07,15.11,49125,50812,44
15.47,15.5,0,375,45
15.77,15.82,12188,14438,46
16.02,16.13,12938,15000,49
16.13,16.7,6750,13312,50
16.27,16.31,0,375,47
16.32,16.36,0,375,48
16.66,16.82,12000,16312,51
16.7,17.07,5625,8062,52
18.61,18.66,0,1312,53
18.71,18.75,0,188,54
18.75,18.79,0,562,55
18.82,18.86,0,562,56
18.85,18.91,14250,15562,57
18.88,18.92,0,562,58
19.25,19.29,0,562,59
19.29,19.33,0,562,60
21.7,21.75,0,375,61
22.78,22.82,0,938,62
23.31,23.34,48750,50625,63
24.83,24.86,0,188,64
25.38,25.42,0,375,65
28.38,28.42,0,375,66
28.73,28.76,0,375,67
29.09,29.14,0,1125,68
29.29,29.34,13875,14812,69
29.34,29.41,14438,15000,70
31.06,31.1,0,375,71
31.84,31.89,9562,10312,72
31.89,31.98,9938,11812,73
32.06,32.22,12375,15562,74
32.24,32.3,15375,16312,75
32.3,32.36,15750,16312,76
32.52,32.6,11812,14250,77
32.6,32.68,11062,12000,78
32.81,32.88,12750,14812,79
32.89,32.93,14625,15750,80
32.93,32.98,15750,16312,81
33.06,33.09,0,375,82
33.06,33.12,15562,16312,83
33.28,33.35,10875,11812,84
33.38,33.42,12000,12750,85
33.42,33.56,12562,15562,86
33.59,33.68,15938,16875,87
33.68,33.74,16312,17062,88
33.79,33.82,15562,16312,89
33.81,33.84,48000,51375,90
34.21,34.27,3188,4688,91
35.43,35.47,0,1125,92
35.91,35.95,0,375,93
37.47,37.52,0,562,94
37.53,37.59,0,562,95
38.39,38.42,0,750,96
38.49,38.53,0,188,97
38.55,38.61,0,562,98
39.75,39.8,0,938,99
39.97,40.01,0,188,100
42.18,42.21,0,188,101
42.31,42.35,0,375,102
44.63,44.66,0,562,103
46.26,46.29,0,188,104
46.52,46.55,0,1312,105
46.97,47,1312,1875,106
47.58,47.62,0,375,107
47.66,47.69,0,562,108
47.83,47.86,0,188,109
47.9,47.94,0,188,110
48.21,48.25,0,750,111
48.57,48.6,0,938,112
49.14,49.18,0,188,113
50.64,50.67,188,1500,114
50.94,50.98,0,188,115
51.31,51.35,0,188,116
51.53,51.55,1312,1875,117
51.54,51.57,375,750,118
52.52,52.56,375,1125,119
53.03,53.07,0,1125,120
53.18,53.22,0,375,121
55.39,55.44,375,1125,122
56.79,56.82,0,375,123
56.95,56.98,0,188,124
57.09,57.13,0,188,125
57.26,57.3,375,938,126
57.64,57.67,0,375,127
58.8,58.83,0,375,128
58.98,59.02,562,938,129
60.03,60.08,0,938,130
60.08,60.12,562,1125,131
60.79,60.82,0,562,132
60.86,60.9,0,375,133
61.77,61.81,0,188,134
61.99,62.03,0,562,135
62.05,62.09,0,750,136
63.74,63.78,0,375,137
63.98,64.02,0,375,138
64.09,64.12,188,750,139
64.13,64.16,750,1500,140
64.55,64.59,0,375,141
64.93,64.97,0,188,142
65.15,65.18,0,188,143
65.58,65.62,0,188,144
65.85,65.89,28500,29625,145
66.17,66.22,375,1125,146
66.22,66.25,750,1312,147
66.7,66.73,0,375,148
66.75,66.79,0,375,149
66.82,66.87,1688,2250,150
67.27,67.31,0,375,151
68.37,68.4,0,375,152
68.44,68.47,0,188,153
68.54,68.59,0,562,154
68.82,68.89,0,562,155
68.93,68.98,0,375,156
68.93,69,5625,12750,157
68.99,69.03,0,562,158
69.37,69.41,750,1125,159
70.45,70.49,13875,14625,161
70.47,70.56,14062,15562,162
70.53,70.56,0,375,160
70.57,70.61,14625,16125,163
70.59,70.65,0,375,164
70.61,70.65,15750,16500,165
70.7,70.74,16312,17062,167
70.71,70.74,33188,33938,166
70.75,70.79,16688,17438,168
70.78,70.82,16875,17625,169
70.85,70.89,17438,18188,170
70.9,70.94,17250,17812,171
70.95,70.99,15000,16500,172
71.06,71.12,9562,10688,173
71.15,71.18,8812,9562,174
71.19,71.25,17250,18750,175
71.25,71.29,0,188,176
71.41,71.45,21938,22875,177
71.45,71.48,22312,23062,178
71.46,71.49,11812,12562,179
71.49,71.57,12188,16312,181
71.49,71.54,25875,27188,180
71.57,71.64,31875,33562,182
71.59,71.65,15750,17250,183
71.67,71.74,17062,18938,184
71.95,72,562,1125,185
72.64,72.69,375,1125,186
72.73,72.77,2062,3188,187
72.75,72.79,562,1125,188
72.79,72.86,14438,17438,192
72.79,72.82,24000,26812,189
72.8,72.83,4875,5812,194
72.81,72.87,10312,12000,195
72.83,72.86,0,188,191
72.83,72.87,5062,6000,193
72.83,72.86,34125,34875,190
72.86,72.9,16688,17250,196
72.91,72.94,11062,12000,197
72.98,73.03,0,375,198
73.04,73.11,0,750,199
73.16,73.21,562,1125,200
73.26,73.29,750,1125,201
73.92,73.95,375,1125,202
74.02,74.07,5250,6562,204
74.05,74.1,12000,13500,203
74.06,74.12,6000,7312,205
74.08,74.11,25688,26812,206
74.11,74.15,24375,25688,207
74.14,74.18,5812,6375,208
74.42,74.46,562,1500,209
75.52,75.57,10500,12188,210
75.58,75.63,12750,14438,212
75.59,75.66,6562,7875,214
75.6,75.63,375,1125,211
75.63,75.67,13875,15000,213
75.65,75.71,6562,7500,215
75.69,75.75,13125,14250,216
75.78,75.81,12750,13875,217
75.8,75.87,5812,6750,219
75.84,75.9,0,562,220
75.84,75.88,11438,13312,218
76.08,76.12,375,1500,221
76.15,76.22,0,188,222
76.67,76.72,375,1312,223
77.19,77.24,13500,14625,224
77.45,77.51,562,1500,225
77.58,77.61,0,562,226
77.97,78.01,9000,9750,227
78.05,78.13,10125,11438,228
78.14,78.17,0,188,229
78.22,78.27,12000,12562,230
78.32,78.42,12938,14062,231
79.59,79.63,5625,6188,232
79.69,79.73,0,188,233
79.74,79.78,8625,9562,234
80.12,80.17,0,562,236
80.13,80.17,6375,7312,235
80.17,80.21,5812,6375,237
80.21,80.3,5250,6188,238
80.52,80.62,5250,6188,239
82.82,82.85,0,562,240
85,85.03,49500,50625,241
86.01,86.03,0,375,242
86.59,86.62,0,1500,243
86.97,87,0,188,244
87.02,87.06,0,562,245
88.09,88.15,8250,10875,246
88.33,88.42,12562,14250,247
88.46,88.49,16312,17438,248
88.67,89.04,9562,14062,251
88.86,88.9,20062,20812,249
88.95,88.98,22312,23062,250
89.03,89.07,12000,13312,252
89.06,89.22,12375,17812,253
89.22,89.26,17625,18000,254
89.28,89.32,16875,17625,256
89.31,89.34,16125,17062,255
90.49,90.52,0,188,257
90.68,90.72,0,375,258
92.95,92.98,0,188,259
93.51,93.55,0,375,260
96.87,96.9,0,188,261
97.21,97.25,0,375,262
98.05,98.08,0,938,263
99.51,99.54,0,188,264
99.56,99.6,0,375,265
99.93,99.96,0,375,266
105.6,105.63,0,375,267
106.28,106.31,0,188,268
106.63,106.66,0,375,269
106.69,106.73,0,562,270
108.54,108.58,0,562,271
108.71,108.78,0,1500,272
108.78,108.82,0,562,273
110.62,110.65,0,188,274
112.53,112.57,0,562,275
112.58,112.62,0,750,276
114.35,114.38,0,375,277
116.33,116.38,0,375,278
116.39,116.43,13500,15750,279
117.19,117.22,0,375,280
117.24,117.28,0,375,281
118.01,118.04,0,562,282
122.57,122.62,0,562,283
122.75,122.8,0,1688,285
122.75,122.79,17250,20062,284
122.85,122.88,0,938,286
124.43,124.46,9000,9750,287
124.44,124.47,18562,19875,288
125.96,126,0,375,289
126.65,126.68,0,562,290
126.69,126.73,0,750,291
127.72,127.76,0,1312,292
131.26,131.3,0,188,293
