t_sec_min,t_sec_max,f_hz_min,f_hz_max,tonal_id
0.0,0.03,14351,15354,1
0.0,0.3,5821,6682,2
0.01,0.04,8690,10038,3
0.08,0.19,11969,12947,4
0.16,0.2,5902,8601,5
0.18,0.63,18293,25865,6
0.22,0.26,9265,11143,7
0.22,0.42,5602,8420,8
0.27,0.32,10082,10278,9
0.28,0.42,11130,11381,10
0.28,0.33,12317,15134,11
0.38,0.59,11650,11976,12
0.43,0.47,16774,16816,13
0.58,0.83,21219,23751,14
0.6,0.74,12588,17250,15
0.63,0.77,11538,11721,16
0.69,0.71,8626,9295,17
0.72,1.09,9891,9891,18
0.82,1.02,5971,8169,19
0.82,0.93,13886,15029,20
0.83,0.89,11815,12544,21
0.84,0.87,30330,30819,22
0.98,1.06,22524,22960,23
1.14,1.21,10289,10795,24
1.17,1.3,7586,8404,25
1.19,1.24,6484,7368,26
1.22,1.51,10756,11185,27
1.25,1.34,8795,15134,28
1.32,1.46,8717,14821,29
1.51,1.75,11324,11535,30
1.52,1.66,20456,24369,31
1.53,1.66,5193,6082,32
1.56,1.81,19617,21671,33
1.59,2.05,6814,7794,34
1.61,1.78,5919,6344,35
1.67,1.78,23544,25694,36
1.68,1.74,12405,14785,37
1.71,2.21,10126,10517,38
1.73,1.79,16729,16993,39
1.77,1.9,11246,11288,40
1.8,1.89,8482,9656,41
1.8,1.85,15644,17553,42
1.83,2.35,5654,6450,43
1.9,1.99,6715,12448,44
1.98,2.02,12769,13324,45
2.04,2.07,13987,14837,46
2.06,2.15,11711,11899,47
2.06,2.09,11783,14674,48
2.1,2.11,7800,7835,49
2.14,2.23,14754,15046,50
2.14,2.21,7766,7800,51
2.15,2.23,16821,17448,52
2.16,2.26,13824,14247,53
2.17,2.28,12706,13268,54
2.21,2.33,8418,11333,55
2.26,2.38,23647,24175,56
2.29,2.34,11863,12064,57
2.29,2.39,22960,24545,58
2.31,2.49,7161,9173,59
2.42,2.46,12029,12029,60
2.42,2.46,11341,11421,61
2.46,2.51,10016,10579,62
2.5,2.66,8820,9421,63
2.51,2.52,10005,11434,64
2.51,2.52,11525,13647,65
2.54,2.66,13493,15544,66
2.56,2.8,15858,17292,67
2.57,2.62,10523,11831,68
2.6,2.71,7168,7421,69
2.63,2.64,9229,10221,70
2.64,2.81,11318,11318,71
2.72,2.94,24293,28386,72
2.75,2.81,7490,8529,73
2.82,2.86,9885,11616,74
2.82,3.0,7697,8155,75
2.86,2.89,10111,11964,76
2.94,2.98,11812,12148,77
2.96,3.02,17023,18939,78
2.97,3.06,8728,10188,79
3.0,3.06,11274,11711,80
3.05,3.38,5697,7688,81
3.09,3.19,9396,10308,82
3.11,3.19,22523,22550,83
3.12,3.38,18535,21417,84
3.13,3.15,11389,13273,85
3.17,3.34,9606,10098,86
3.19,3.5,11048,13629,87
3.19,3.23,14762,16177,88
3.29,3.59,8684,19252,89
3.3,3.45,23953,25162,90
3.32,3.41,10106,10667,91
3.38,3.52,14015,15181,92
3.39,3.65,7700,13491,93
3.44,3.58,9705,10128,94
3.55,3.7,5016,6989,95
3.63,3.72,10308,13452,96
3.71,4.0,7437,8295,97
3.75,4.12,5518,8951,98
3.88,3.98,10315,10921,99
3.93,4.0,14753,15668,100
3.93,4.13,11830,13597,101
4.01,4.24,21395,23606,102
4.03,4.32,7700,14352,103
4.07,4.14,16526,18192,104
4.07,4.12,13985,15179,105
4.08,4.1,13620,13921,106
4.09,4.14,7739,9052,107
4.1,4.26,8244,9709,108
4.39,4.57,6027,8270,109
4.58,4.63,8602,11083,110
4.6,4.69,7679,9352,111
4.61,4.73,9530,9530,112
4.63,4.86,5139,6005,113
4.69,4.75,8659,9236,114
4.74,4.78,12445,13801,115
4.76,4.85,9713,10097,116
4.78,4.85,19570,20253,117
4.79,5.0,7185,7778,118
4.82,5.52,9165,9409,119
4.86,4.97,14490,14690,120
4.87,5.0,15810,16359,121
4.92,4.97,10136,11014,122
4.95,5.01,12316,12673,123
5.05,5.1,7021,9181,124
5.15,5.25,9834,13349,125
5.2,5.24,23494,25051,126
5.21,5.3,11391,12998,127
5.25,5.3,15437,15699,128
5.26,5.39,9839,10579,129
5.35,5.43,12779,13159,130
5.41,5.58,9891,18474,131
5.46,5.49,25465,26358,132
5.46,5.73,11951,13339,133
5.53,5.64,10998,10998,134
5.55,5.6,13547,14644,135
5.68,5.84,31355,31982,136
5.71,5.81,9005,9403,137
5.71,5.86,11411,11968,138
5.74,5.92,21097,23512,139
5.81,6.04,9744,10954,140
5.88,5.97,6388,12987,141
5.92,6.09,21638,24508,142
6.02,6.07,13566,13654,143
6.06,6.11,8143,9634,144
6.24,6.39,13826,14059,145
6.54,6.6,14539,15488,146
6.63,6.93,5258,7185,147
6.65,6.67,7117,9267,148
6.67,6.7,11109,12236,149
6.69,6.86,10021,15082,150
6.69,6.73,14695,17264,151
6.74,6.96,6888,7728,152
6.91,6.99,8258,11964,153
6.93,7.27,9848,11012,154
7.0,7.13,7208,8213,155
7.23,7.28,14503,14596,156
7.27,7.57,5891,11384,157
7.29,7.38,10360,11710,158
7.32,7.42,13665,13711,159
7.45,7.53,8060,8204,160
7.56,7.62,8980,9765,161
7.7,7.87,7409,8653,162
7.77,7.99,9088,13216,163
8.22,8.73,5131,11075,164
8.24,8.28,9010,11152,165
8.29,8.39,15168,15818,166
8.35,8.4,9813,12261,167
8.44,8.51,9813,10578,168
8.54,8.64,10960,11927,169
8.59,8.7,12675,13600,170
8.63,8.7,16811,17822,171
8.66,8.72,17195,18200,172
8.78,9.0,29798,33204,173
8.78,8.88,8445,11890,174
8.89,8.94,11963,13760,175
8.89,9.0,15460,16585,176
8.97,9.11,7407,12555,177
9.01,9.06,11895,13758,178
9.02,9.31,11471,11964,179
9.02,9.28,16310,16916,180
9.02,9.27,22894,23932,181
9.04,9.05,24988,26112,182
9.09,9.18,13710,14288,183
9.15,9.32,6560,13918,184
9.16,9.2,12016,12628,185
9.18,9.22,9821,10977,186
9.19,9.24,7426,7599,187
9.22,9.26,12819,13774,188
9.27,9.39,5026,5463,189
9.27,9.32,9133,9832,190
9.31,9.47,22736,23475,191
9.36,9.38,6119,7232,192
9.37,9.49,8652,10443,193
9.48,9.51,12224,13148,194
9.48,9.58,6041,8290,195
9.52,9.56,13991,15517,196
9.54,9.56,8001,9434,197
9.56,9.85,11199,11714,198
9.57,9.69,33627,34311,199
9.57,10.19,19605,24242,200
9.58,9.61,7513,9160,201
9.64,9.7,10244,10689,202
9.67,9.97,17404,19493,203
9.67,9.69,8057,8962,204
9.7,9.78,6052,6193,205
9.72,9.74,9520,9520,206
9.72,9.94,6950,7357,207
9.74,10.04,7772,8464,208
9.75,9.77,9060,9095,209
9.76,9.8,5199,7390,210
9.77,9.79,9153,10136,211
9.8,9.91,9095,10712,212
9.8,9.93,34550,36163,213
9.8,9.82,10820,12059,214
9.83,9.92,12726,15393,215
9.85,9.9,6547,6583,216
9.86,9.93,11112,11333,217
9.9,10.32,9870,12315,218
9.98,10.09,13264,16323,219
9.98,10.04,6671,7130,220
9.99,10.05,32545,33841,221
10.0,10.12,5234,5698,222
10.12,10.24,29449,29830,223
10.13,10.19,6264,7184,224
10.18,10.33,16131,18636,225
10.26,10.31,14117,16054,226
10.32,10.76,19604,21090,227
10.33,10.37,14563,14692,228
10.33,10.47,7416,7819,229
10.34,10.35,9069,10071,230
10.35,10.56,9692,16131,231
10.44,10.46,9385,13111,232
10.45,10.5,9720,9820,233
10.47,10.5,8668,12425,234
10.48,10.51,11767,12508,235
10.5,10.52,10805,10805,236
10.51,10.56,16459,19258,237
10.54,10.63,8435,8808,238
10.54,10.8,14457,15784,239
10.58,10.59,17668,20210,240
10.58,10.61,10613,11175,241
10.6,10.66,9473,9534,242
10.63,10.73,16477,18032,243
10.63,10.69,16923,20079,244
10.66,10.82,19638,19997,245
10.68,10.7,11014,11804,246
10.79,10.84,23594,24496,247
10.79,10.85,6696,7466,248
10.84,10.87,15271,16597,249
10.85,11.0,20460,21165,250
10.87,10.96,9920,14731,251
10.88,10.95,11567,14228,252
10.9,10.97,9871,10951,253
10.93,11.02,7543,7543,254
10.95,11.03,15762,16516,255
10.97,10.99,15049,15951,256
11.06,11.12,7830,9104,257
11.12,11.15,9781,10328,258
11.2,11.28,7399,9040,259
11.2,11.33,11652,11917,260
11.34,11.52,5069,6647,261
11.39,11.42,6213,10204,262
11.42,11.49,8148,8573,263
11.43,11.47,13025,14515,264
11.56,11.62,13881,14200,265
11.82,11.89,13468,15103,266
11.86,12.0,7816,14004,267
12.11,12.3,5185,6343,268
12.12,12.22,10476,11028,269
12.25,12.29,16097,17477,270
12.29,12.3,6949,7059,271
12.3,12.33,21533,24613,272
12.31,12.46,15698,17392,273
12.35,12.58,5295,5791,274
12.4,12.42,21031,22411,275
12.42,12.47,16200,19839,276
12.42,12.68,8357,14757,277
12.58,12.6,5985,6374,278
12.61,12.72,7886,8272,279
12.68,12.76,16374,16601,280
12.74,12.87,10906,12075,281
12.79,12.86,12241,13178,282
12.84,12.9,12027,12075,283
12.91,13.03,12003,16017,284
12.94,13.39,7591,8966,285
12.95,13.07,12168,13652,286
12.95,13.01,14826,15848,287
12.97,13.02,7501,9191,288
12.98,13.07,11343,11673,289
13.04,13.29,5789,9253,290
13.1,13.29,12709,13213,291
13.15,13.42,9803,10848,292
13.16,13.19,23440,25914,293
13.19,13.33,11398,12003,294
13.42,13.62,6693,7220,295
13.44,13.54,8940,9596,296
13.46,13.55,6178,6880,297
13.56,13.67,9529,11930,298
13.63,13.71,15741,16470,299
13.65,13.71,21038,21963,300
13.67,13.71,26406,27330,301
13.75,13.88,4997,6956,302
13.78,14.02,5112,8555,303
13.79,13.88,11577,13997,304
13.84,13.87,20216,21054,305
14.02,14.2,12491,14103,306
14.04,14.24,8333,11506,307
14.13,14.3,7114,14749,308
14.14,14.16,15806,18010,309
14.16,14.21,7644,8385,310
14.18,14.24,6256,7089,311
14.28,14.3,10004,10189,312
14.31,14.34,8708,8937,313
14.31,14.34,15270,17307,314
14.33,14.38,7716,7970,315
14.38,14.56,5020,6458,316
14.43,14.51,10189,10454,317
14.44,15.0,7183,16387,318
14.47,14.52,13749,14301,319
14.53,14.56,11763,12503,320
14.55,14.57,13012,13244,321
14.56,14.58,13845,14169,322
14.57,14.85,11922,13085,323
14.58,14.79,15419,19986,324
14.63,14.81,7067,7583,325
14.78,14.92,13505,14103,326
14.82,14.95,7111,7740,327
14.86,14.93,8010,12289,328
14.89,14.93,15766,15830,329
14.93,15.09,16340,19051,330
14.94,15.01,8940,13278,331
14.96,15.02,11933,12460,332
15.05,15.45,8258,10643,333
15.08,15.2,9291,13405,334
15.1,15.27,7793,8503,335
15.26,15.3,22028,28640,336
15.27,15.31,7561,9946,337
15.27,15.32,14815,20623,338
15.35,15.4,9248,18091,339
15.39,15.54,8331,20532,340
15.45,15.53,6460,10080,341
15.46,15.77,10970,13278,342
15.46,15.67,9614,13085,343
15.47,15.66,19360,24218,344
15.48,15.54,25890,30554,345
15.5,15.64,29281,32527,346
15.52,15.65,38775,42801,347
15.56,15.9,7377,7752,348
15.58,15.62,10683,17888,349
15.67,15.68,28699,29102,350
15.71,15.81,21131,25654,351
15.79,15.94,10419,11096,352
15.84,15.94,39265,40383,353
15.95,16.02,7317,8494,354
15.98,16.27,11542,12613,355
16.02,16.11,13556,13761,356
16.13,16.29,8548,16999,357
16.29,16.51,6395,6943,358
16.32,16.42,9938,10099,359
16.37,16.41,5392,5927,360
16.39,16.43,10576,11172,361
16.46,16.53,10526,12861,362
16.47,16.51,5124,5552,363
16.52,16.54,6113,6374,364
16.53,16.58,14103,15295,365
16.54,16.55,7106,7211,366
16.56,16.81,8413,10945,367
16.57,16.77,16200,21065,368
16.58,16.94,8255,16192,369
16.61,16.72,48630,48943,370
16.69,16.89,5183,6910,371
16.85,16.96,45891,45969,372
16.85,17.16,9213,10258,373
16.89,17.0,16595,17456,374
16.93,17.07,11700,11902,375
16.97,17.21,8720,14688,376
16.98,17.03,15171,19412,377
16.99,17.03,12386,15960,378
17.04,17.29,7859,8597,379
17.04,17.07,20963,22316,380
17.08,17.13,9828,16164,381
17.12,17.21,13765,18481,382
17.13,17.29,11800,12438,383
17.14,17.21,7576,9209,384
17.16,17.26,9950,10017,385
17.2,17.27,5786,6355,386
17.27,17.29,9479,10354,387
17.28,17.41,6752,8967,388
17.28,17.32,6019,6230,389
17.3,17.32,11229,14122,390
17.3,17.61,8374,10935,391
17.31,17.41,11296,11363,392
17.39,17.6,6936,7617,393
17.41,17.48,12629,14196,394
17.53,17.69,10439,10930,395
17.55,17.66,5398,6097,396
17.73,17.81,7644,8070,397
17.79,17.94,11631,12626,398
17.81,18.05,5758,6063,399
17.86,17.95,6367,6732,400
17.89,17.94,7401,7401,401
17.93,18.37,12644,14783,402
17.97,18.16,6123,6732,403
17.99,18.41,14947,15721,404
18.13,18.22,9146,9652,405
18.34,18.53,11046,12040,406
18.39,18.49,7703,8071,407
18.48,18.56,5999,13357,408
18.55,18.59,15930,20411,409
18.57,18.81,13795,14686,410
18.66,18.74,14783,17799,411
18.7,18.76,8789,8834,412
18.83,18.87,10546,11312,413
18.87,19.0,6402,7572,414
18.89,19.0,10050,10366,415
18.91,19.05,10228,11097,416
19.02,19.07,24647,25260,417
19.02,19.09,10321,12618,418
19.03,19.16,6176,8158,419
19.07,19.08,22162,22935,420
19.07,19.33,10174,10486,421
19.09,19.16,8203,9059,422
19.11,19.13,14963,15639,423
19.13,19.15,12402,13223,424
19.16,19.24,13622,13850,425
19.22,19.64,9565,17041,426
19.25,19.68,5190,8566,427
19.25,19.34,7434,7888,428
19.29,19.43,8159,9988,429
19.36,19.74,10980,11092,430
19.37,19.44,21379,23121,431
19.52,19.75,15176,15646,432
19.53,19.57,7157,7270,433
19.57,19.64,11965,12491,434
19.69,19.76,30444,31111,435
19.83,19.93,11850,12461,436
19.83,20.06,12385,17816,437
20.0,20.11,13092,13828,438
20.21,20.32,8766,12614,439
20.38,20.51,12128,13418,440
20.41,20.47,9687,10255,441
20.42,20.55,7764,9193,442
20.48,20.56,7902,8052,443
20.64,20.68,15468,15732,444
20.66,20.72,5809,6772,445
20.67,20.77,9052,9766,446
20.75,20.91,6578,8363,447
20.77,20.84,14573,15374,448
20.79,21.03,9106,14306,449
20.81,20.87,20135,20372,450
20.87,20.93,19765,21507,451
20.92,21.0,14478,15507,452
20.93,20.97,5315,5404,453
20.93,20.98,16308,18445,454
20.96,21.04,5716,7274,455
21.01,21.17,12496,13237,456
21.06,21.17,15997,16932,457
21.09,21.18,5271,5464,458
21.13,21.2,8030,8546,459
21.15,21.24,13015,13148,460
21.18,21.63,9495,10124,461
21.19,21.28,19824,20225,462
21.26,21.44,13580,17067,463
21.35,21.59,6155,7502,464
21.4,21.55,12478,13032,465
21.42,21.47,14427,15971,466
21.47,21.55,8001,8218,467
21.5,21.53,17316,19309,468
21.51,21.95,10540,10940,469
21.58,21.65,12434,13580,470
21.65,21.69,11886,12718,471
21.65,21.72,6157,6207,472
21.69,21.78,6805,9595,473
21.71,21.79,8200,8349,474
21.71,21.8,13132,15373,475
21.76,21.86,10442,14477,476
21.88,22.12,6882,7036,477
21.9,21.95,12619,14648,478
22.02,22.03,14663,14663,479
22.07,22.13,7575,7575,480
22.08,22.1,14008,14547,481
22.14,22.29,6959,7075,482
22.2,22.29,8962,9039,483
22.3,22.34,9155,11620,484
22.36,22.48,12032,13623,485
22.37,22.48,5991,6497,486
22.47,22.63,8051,11188,487
22.49,22.53,7190,12621,488
22.53,22.69,9278,9783,489
22.6,22.66,5074,7427,490
22.66,22.71,12679,13674,491
22.72,22.8,13445,14868,492
22.75,22.85,10642,10642,493
22.96,23.17,8250,12948,494
23.04,23.26,6145,8849,495
23.13,23.34,9123,15524,496
23.17,23.23,13117,16454,497
23.33,23.45,8630,9506,498
23.37,23.54,12389,18172,499
23.47,23.7,19479,21066,500
23.49,23.56,6268,6268,501
23.6,23.68,7367,7869,502
23.61,23.85,6314,6557,503
23.64,23.94,18966,21113,504
23.65,23.81,11144,12150,505
23.75,23.9,22514,22700,506
23.77,23.83,13144,14391,507
23.78,23.8,23107,23906,508
23.84,23.87,10703,11449,509
23.88,24.06,10469,11776,510
23.9,23.96,7295,7528,511
23.96,23.98,6453,6514,512
23.97,24.0,19993,21206,513
23.97,24.03,7996,8050,514
23.98,24.04,15698,16410,515
23.99,24.05,8688,11029,516
23.99,24.05,5285,8275,517
24.05,24.09,5567,7761,518
24.06,24.09,15511,16118,519
24.1,24.12,11760,12263,520
24.15,24.26,6186,6723,521
24.15,24.26,11697,13269,522
24.16,24.21,8901,10604,523
24.18,24.22,16224,17230,524
24.26,24.31,13849,15020,525
24.26,24.31,10125,12326,526
24.29,24.32,8585,10373,527
24.33,24.38,5912,6190,528
24.34,24.45,6155,7377,529
24.4,24.46,10228,10421,530
24.42,24.88,10323,13513,531
24.46,24.52,5031,5031,532
24.47,24.56,8868,9310,533
24.51,24.54,5912,5975,534
24.54,24.67,11131,16350,535
24.56,24.7,5912,8553,536
24.7,24.77,18055,20858,537
24.81,24.86,14142,16123,538
24.9,25.0,14588,15271,539
24.91,25.1,21974,25834,540
24.91,25.05,6935,8444,541
24.92,25.05,5352,5651,542
24.95,25.13,16698,17516,543
24.96,25.01,21100,21477,544
25.0,25.07,11050,13347,545
25.08,25.16,7406,8488,546
25.29,25.55,6147,6350,547
25.31,25.54,11112,11112,548
25.36,25.46,9400,13919,549
25.48,25.58,5030,5636,550
25.55,25.56,12286,13218,551
25.56,25.61,6147,7140,552
25.57,25.69,10992,11101,553
25.57,25.61,10179,10210,554
25.63,25.64,12286,13068,555
25.66,25.71,7906,8114,556
25.67,25.74,11317,13753,557
25.67,25.72,4963,7823,558
25.77,25.83,9035,9940,559
25.85,25.91,9662,10220,560
25.99,26.06,6347,6921,561
26.1,26.21,11698,11752,562
26.1,26.45,4952,6055,563
26.12,26.35,6323,9935,564
26.15,26.32,6749,7445,565
26.22,26.27,8214,11289,566
26.24,26.26,18418,19873,567
26.27,26.29,22464,24010,568
26.28,26.31,11735,12035,569
26.3,26.33,21433,24192,570
26.38,26.47,8726,10677,571
26.53,26.55,8941,9715,572
26.53,26.55,17327,19964,573
26.56,26.64,9455,10453,574
27.0,27.58,5275,6470,575
28.17,28.37,6404,6858,576
28.19,28.35,13471,13776,577
28.28,28.37,9458,9578,578
28.3,28.46,9518,10725,579
28.37,28.48,12992,14249,580
28.37,28.43,26047,27819,581
28.38,28.47,20478,21196,582
28.39,28.56,7780,9043,583
28.45,28.7,19399,26706,584
28.46,28.51,11495,13291,585
28.53,28.67,9620,10716,586
28.55,28.62,6883,6883,587
28.56,28.58,8560,8620,588
28.6,29.13,9076,13291,589
28.63,28.68,11548,12453,590
28.64,29.12,21675,25149,591
28.65,28.7,10297,11315,592
28.69,28.74,32335,32754,593
28.7,28.73,20643,21017,594
28.78,28.81,13591,14549,595
28.82,28.86,11674,11734,596
28.83,29.09,32515,36168,597
28.91,29.03,44147,45915,598
29.07,29.37,9070,10143,599
29.1,29.16,7008,8261,600
29.13,29.36,10072,10661,601
29.2,29.31,5198,5699,602
29.29,29.34,17678,18043,603
29.31,29.35,6718,7949,604
29.41,29.45,10072,13757,605
29.51,29.6,14178,14264,606
29.61,29.83,11364,13658,607
29.79,29.86,5450,6360,608
29.92,30.04,11707,13831,609
29.92,30.0,11191,11278,610
29.96,30.43,8581,11497,611
30.17,30.42,6034,6776,612
30.36,30.61,16129,16430,613
30.41,30.44,5041,8234,614
30.44,30.67,13371,13867,615
30.56,30.9,7338,9536,616
30.68,30.81,10108,11844,617
30.74,30.86,16143,16178,618
30.79,30.95,6913,7569,619
30.8,30.9,20897,21495,620
30.86,31.04,11236,13238,621
30.96,31.09,22299,22654,622
31.09,31.2,9535,10872,623
31.1,31.21,11734,13255,624
31.15,31.2,15031,22724,625
31.19,31.35,7280,8740,626
31.21,31.48,10879,11263,627
31.21,31.73,23077,24848,628
31.22,31.4,11200,11941,629
31.27,31.32,9535,10376,630
31.34,31.62,8042,9816,631
31.47,31.6,16156,16894,632
31.48,31.75,14764,18359,633
31.49,31.59,10749,11307,634
31.51,31.54,9209,9582,635
31.52,31.63,11963,12383,636
31.55,31.9,8087,8825,637
31.55,31.89,23074,24380,638
31.62,31.79,7201,9259,639
31.79,31.83,14303,14875,640
31.81,32.01,6565,7116,641
31.83,32.15,5327,7529,642
31.9,32.24,8629,13904,643
31.99,32.15,25437,25967,644
32.05,32.18,7116,7666,645
32.28,32.35,9746,9954,646
32.42,32.51,15881,18013,647
32.56,32.62,8966,9538,648
32.57,32.63,20155,20807,649
32.58,32.76,7771,7939,650
32.59,32.63,11774,12606,651
32.62,32.72,7053,7719,652
32.75,32.78,8291,9538,653
32.75,32.8,9850,12554,654
32.78,32.89,27149,31178,655
32.79,32.8,10214,10422,656
32.8,32.86,15413,16713,657
32.82,32.9,8264,12299,658
32.89,32.91,15573,15610,659
32.95,32.99,8430,10682,660
33.01,33.2,9695,11513,661
33.13,33.18,14796,15169,662
33.14,33.16,6383,6932,663
33.17,33.23,6577,6700,664
33.19,33.41,30952,31963,665
33.25,33.48,15425,16013,666
33.27,33.35,9633,9633,667
33.38,33.89,6389,6667,668
33.38,33.58,12432,16537,669
33.4,34.0,9691,9829,670
33.5,33.53,11212,12491,671
33.52,33.73,4989,6234,672
33.53,34.09,12767,13303,673
33.58,33.77,15667,15791,674
33.71,33.75,7885,8382,675
33.94,33.99,6579,6579,676
34.0,34.07,7719,7923,677
34.07,34.23,15772,20632,678
34.13,34.23,11288,11853,679
34.52,34.53,11299,11566,680
34.54,34.59,7588,9066,681
34.6,34.65,11063,12861,682
34.67,34.7,12236,12459,683
34.73,34.97,7816,13455,684
34.76,34.8,7906,9066,685
34.77,34.91,11299,11834,686
34.92,35.06,9863,10824,687
34.94,35.0,16597,18325,688
35.02,35.18,17688,18416,689
35.08,35.16,5187,6142,690
35.09,35.2,11924,13977,691
35.11,35.18,9558,11477,692
35.18,35.3,5642,7051,693
35.19,35.32,5232,6051,694
35.33,35.61,10688,10862,695
35.42,35.93,9842,10475,696
35.43,35.96,19652,20990,697
35.55,35.62,16597,17051,698
35.67,35.75,6232,6802,699
35.79,35.84,13295,22163,700
35.86,35.91,11215,11979,701
35.96,36.79,5660,10699,702
35.97,36.0,11568,12903,703
35.98,36.47,15367,21358,704
36.0,36.19,25380,30168,705
36.01,36.03,16476,17409,706
36.01,36.04,14367,15259,707
36.01,36.1,18938,22965,708
36.01,36.1,18780,22878,709
36.11,36.18,20829,23126,710
36.11,36.18,10313,11813,711
36.13,36.29,18492,20080,712
36.13,36.57,11011,13060,713
36.13,36.32,20201,21692,714
36.18,36.2,18310,19676,715
36.18,36.23,8689,9850,716
36.2,36.24,22398,23480,717
36.2,36.23,17207,17785,718
36.21,36.28,13173,14658,719
36.22,36.3,9281,9330,720
36.29,36.55,12176,16839,721
36.3,36.35,9921,10315,722
36.3,36.34,8589,8694,723
36.3,36.33,17207,17340,724
36.32,36.63,10218,11374,725
36.44,36.6,20760,21302,726
36.45,36.58,9336,10009,727
36.48,36.6,24111,24359,728
36.48,36.59,15659,15961,729
36.49,36.58,14579,15157,730
36.52,36.61,8116,8379,731
36.59,36.67,11216,12057,732
36.6,36.72,12964,14422,733
36.62,36.68,10230,10699,734
36.64,36.68,22239,23273,735
36.64,36.77,20874,21316,736
36.68,36.73,13824,14996,737
36.69,36.73,9336,10096,738
36.72,36.79,11636,13472,739
36.73,36.81,12057,13003,740
36.73,37.0,5269,5544,741
36.73,36.8,11128,12613,742
36.75,36.79,9800,9839,743
36.81,36.86,10582,13746,744
36.82,36.83,14644,14856,745
36.85,36.86,15152,15386,746
36.86,36.95,9422,10347,747
36.87,36.92,8524,12631,748
36.97,36.98,11167,11310,749
36.98,37.0,12339,12496,750
37.01,37.04,14292,14449,751
37.03,37.04,15191,16402,752
37.06,37.19,15249,15517,753
37.09,37.13,9904,9904,754
37.13,37.35,10216,14002,755
37.15,37.37,9414,9414,756
37.22,37.3,15650,15962,757
37.32,37.42,10704,10973,758
37.49,37.58,10872,11108,759
37.7,37.83,17950,22394,760
37.76,37.93,5421,8539,761
37.81,37.88,11992,15177,762
37.81,37.86,16062,16062,763
37.95,38.11,15591,15695,764
37.97,38.07,8293,9157,765
37.99,38.16,16452,18799,766
37.99,38.39,8402,20204,767
38.01,38.03,4989,5679,768
38.05,38.45,5057,11080,769
38.07,38.09,15798,16762,770
38.09,38.18,7372,7892,771
38.12,38.27,25835,26428,772
38.12,38.33,20204,21100,773
38.16,38.21,6193,8087,774
38.19,38.27,31135,31688,775
38.29,38.32,19924,21071,776
38.43,38.48,7318,7318,777
38.43,38.44,19573,20112,778
38.44,38.46,15611,18688,779
38.45,38.46,14573,15573,780
38.46,38.47,4995,7149,781
38.46,38.47,10495,13072,782
38.49,38.5,15188,17265,783
38.5,38.5,8658,9472,784
38.5,38.54,19881,21804,785
38.51,38.55,7229,7630,786
38.51,38.59,5093,12317,787
38.53,38.61,33349,36687,788
38.54,38.66,11303,13496,789
38.57,38.61,23112,24381,790
38.59,38.62,8841,10977,791
38.63,38.64,10185,11848,792
38.66,38.69,8726,13996,793
38.67,38.76,4956,12726,794
38.68,38.74,10916,11101,795
38.76,38.77,8841,10072,796
38.76,38.79,13303,19727,797
38.79,38.87,15255,15373,798
38.8,38.82,7333,10225,799
38.83,38.87,9522,10796,800
38.83,38.87,14419,14660,801
38.84,38.93,11758,12240,802
38.85,38.87,21061,21688,803
38.85,38.86,7034,9396,804
38.86,38.87,11131,11999,805
38.87,38.9,13107,13927,806
38.87,38.95,17928,20483,807
38.88,39.67,5494,10167,808
38.88,38.96,14833,16948,809
38.89,38.92,10167,10215,810
38.91,38.95,10987,13739,811
38.94,38.99,13011,13638,812
38.95,38.96,9010,10119,813
38.95,39.03,20166,20423,814
38.96,39.06,5125,5154,815
38.96,39.0,15518,15614,816
38.96,39.13,12335,12674,817
38.97,39.02,17153,17639,818
39.02,39.11,10213,10408,819
39.02,39.04,4980,7956,820
39.03,39.13,11131,11951,821
39.03,39.06,15807,15855,822
39.04,39.05,8721,10022,823
39.05,39.06,10938,11806,824
39.05,39.16,20290,21013,825
39.06,39.1,11324,14096,826
39.06,39.14,16385,16626,827
39.12,39.14,8528,10263,828
39.15,39.18,13231,13445,829
39.17,39.24,15807,16192,830
39.19,39.22,10263,10312,831
39.21,39.31,11661,11951,832
39.21,39.28,12722,13208,833
39.22,39.22,6648,7853,834
39.22,39.23,8432,9830,835
39.24,39.28,19615,19615,836
39.25,39.28,8575,8575,837
39.27,39.33,9008,9057,838
39.29,39.3,8480,9685,839
39.31,39.36,15072,15294,840
39.34,39.47,10572,11285,841
39.34,39.41,18324,19037,842
39.37,39.45,9635,9924,843
39.42,39.46,14254,14742,844
39.43,39.56,16631,16675,845
39.49,39.55,11107,11330,846
39.5,39.61,9458,10528,847
39.5,39.59,8880,9860,848
39.51,39.67,10840,13780,849
39.55,39.66,17920,18211,850
39.65,39.73,6786,12971,851
39.69,39.77,9013,10706,852
39.69,39.73,5048,5093,853
39.72,39.78,11273,12213,854
39.77,39.82,11417,11466,855
39.94,40.0,10017,14093,856
40.04,40.81,7340,9538,857
40.05,40.08,15371,16649,858
40.22,40.32,5380,5418,859
40.36,40.49,14641,19812,860
40.45,40.51,12694,21759,861
40.45,40.55,6488,8009,862
40.47,40.6,11599,11906,863
40.52,40.57,12398,16476,864
40.57,40.62,13009,13619,865
40.57,40.76,6882,7579,866
40.62,40.75,13667,18048,867
40.66,41.02,11765,12208,868
40.86,41.04,9081,9473,869
40.9,41.15,5990,6037,870
40.99,41.06,10719,10860,871
41.08,41.14,11281,11281,872
41.2,41.36,7629,11286,873
41.32,41.35,13950,17649,874
41.43,41.49,7531,8217,875
41.47,42.05,9881,11594,876
41.52,41.59,5959,6604,877
41.58,41.8,15564,15683,878
41.73,41.79,12190,15091,879
41.74,41.82,6544,6908,880
41.9,41.94,16216,18406,881
41.92,42.0,7868,10473,882
41.95,42.34,5347,10265,883
41.99,42.02,5091,6690,884
42.03,42.08,13670,15801,885
42.09,42.18,11301,11560,886
42.12,42.19,8194,8768,887
42.32,42.39,15578,17138,888
42.38,42.44,10726,11284,889
42.39,42.44,7518,10453,890
42.42,43.18,5027,7096,891
42.45,42.47,13275,14130,892
42.45,42.48,9900,10682,893
42.47,42.52,12978,15429,894
42.48,42.81,16096,19586,895
42.5,43.39,4967,9518,896
42.5,42.57,26545,28439,897
42.51,43.29,8877,14051,898
42.52,42.65,11344,11766,899
42.53,42.54,11567,12050,900
42.54,42.68,20849,22714,901
42.65,42.74,7017,9872,902
42.66,42.79,10978,11224,903
42.83,42.97,19165,19826,904
42.87,43.59,8140,15796,905
43.04,43.2,17239,18743,906
43.08,43.23,8938,9299,907
43.21,43.5,10562,11524,908
43.24,43.33,7396,7644,909
43.27,43.36,22473,22533,910
43.31,43.4,31798,31798,911
43.38,43.43,23376,24158,912
43.46,43.5,5769,8246,913
43.48,43.59,25060,25301,914
43.61,43.65,10157,11252,915
43.64,43.73,19853,20277,916
43.65,44.12,23659,25063,917
43.66,44.12,11842,12447,918
43.69,44.09,35647,37433,919
43.89,44.01,22478,23223,920
43.97,44.1,14258,15367,921
43.97,44.03,4963,9135,922
44.05,44.16,9117,9595,923
44.06,44.15,12295,12974,924
44.12,44.32,7795,8320,925
44.13,44.21,14970,16636,926
44.19,44.28,9910,10777,927
44.2,44.58,11059,11380,928
44.22,44.61,14777,16636,929
44.28,44.33,12726,13328,930
44.43,44.52,9563,9743,931
44.47,44.75,19329,20162,932
44.5,44.58,12451,14372,933
44.62,44.68,6636,9200,934
44.66,44.91,9925,10255,935
44.66,44.75,16792,19995,936
44.73,45.1,8164,9272,937
44.99,45.23,7928,8069,938
45.01,45.08,10781,10781,939
45.06,45.69,7269,10781,940
45.06,45.16,17574,21086,941
45.07,45.24,12623,15329,942
45.08,45.1,12845,15949,943
45.09,45.27,25059,29377,944
45.11,45.19,10838,10896,945
45.11,45.47,27707,32658,946
45.18,45.37,5330,5697,947
45.19,45.34,16365,17459,948
45.19,45.54,19359,21719,949
45.2,45.25,13429,13429,950
45.23,45.24,10892,10956,951
45.23,45.28,6305,7699,952
45.27,45.31,10763,11086,953
45.28,45.4,12162,12450,954
45.38,45.52,15609,16250,955
45.43,45.54,12968,13489,956
45.45,45.58,5068,6326,957
45.5,45.68,10953,11587,958
45.56,45.68,14696,15271,959
45.59,45.85,5426,5772,960
45.6,45.7,18150,18841,961
45.68,45.74,6463,6463,962
45.72,45.79,10090,10781,963
45.72,45.83,6348,7154,964
45.72,46.1,6634,7936,965
45.73,45.78,13602,14235,966
45.74,45.77,17171,17689,967
45.8,45.86,10269,11264,968
45.8,45.85,12735,13084,969
45.86,45.93,6232,6645,970
45.87,45.96,10262,11817,971
45.87,45.96,9111,11069,972
45.87,45.94,5369,5829,973
45.99,46.01,9104,9722,974
46.06,46.3,12011,12829,975
46.1,46.16,21569,23141,976
46.21,46.55,6415,6855,977
46.26,46.47,7928,8213,978
46.29,46.45,15910,16161,979
46.45,46.5,5297,5812,980
46.55,46.73,11382,11658,981
46.71,46.77,8437,8437,982
46.86,46.94,6918,9433,983
46.94,47.1,7891,8167,984
46.96,47.18,10524,16146,985
46.98,47.05,6596,7374,986
47.04,47.16,11674,12878,987
47.05,47.15,10205,10205,988
47.22,47.28,17006,17752,989
47.26,47.37,10630,10907,990
47.27,47.41,5922,6380,991
47.31,47.35,15951,17395,992
47.4,47.65,6913,8172,993
47.41,47.55,14467,15987,994
47.6,47.68,13541,14282,995
47.72,47.96,8303,10518,996
47.85,48.33,5622,5876,997
47.98,48.07,9729,11047,998
48.13,48.15,15406,16550,999
48.16,48.25,8679,10509,1000
48.16,48.2,15782,16193,1001
48.19,48.22,14606,14907,1002
48.19,48.23,13812,14278,1003
48.23,48.27,12910,13129,1004
48.25,48.29,9809,10994,1005
48.26,48.81,15408,21008,1006
48.28,48.33,13578,14870,1007
48.32,48.55,8191,9325,1008
48.33,48.46,21008,22946,1009
48.33,48.47,7471,13462,1010
48.37,48.46,16001,16372,1011
48.39,48.55,10715,10915,1012
48.4,48.9,11821,13242,1013
48.66,48.7,8685,8685,1014
48.73,49.01,6480,7754,1015
48.9,49.09,7462,8081,1016
48.93,49.0,16272,16922,1017
48.98,49.01,10766,13310,1018
49.03,49.08,17659,19795,1019
49.06,49.2,10719,11820,1020
49.1,49.18,12583,15363,1021
49.13,49.26,6841,7207,1022
49.19,49.32,11536,12474,1023
49.24,49.42,15049,17895,1024
49.4,49.56,10831,11978,1025
49.54,49.73,12395,14513,1026
49.57,49.88,14097,14810,1027
49.59,49.62,8033,8400,1028
49.63,49.78,7206,7804,1029
49.72,49.8,5740,5877,1030
49.89,49.98,22284,22917,1031
50.47,50.49,13087,14120,1032
50.52,50.6,9358,9896,1033
50.57,50.59,11303,11738,1034
50.6,50.82,10245,11239,1035
50.62,50.63,9109,10333,1036
50.63,50.72,9633,9983,1037
50.64,50.88,7173,8098,1038
50.73,50.88,14542,15118,1039
50.75,50.82,10376,10420,1040
50.83,50.98,11668,14265,1041
50.86,51.12,12692,13453,1042
50.88,51.04,8397,9579,1043
50.95,51.0,17067,18330,1044
50.95,51.1,7274,7799,1045
50.98,51.15,14508,15270,1046
51.0,51.04,15750,17279,1047
51.01,51.05,10412,10440,1048
51.05,51.33,7139,12342,1049
51.09,51.2,7475,9590,1050
51.1,51.4,9767,11089,1051
51.12,51.19,9823,9823,1052
51.21,51.4,21316,22087,1053
51.27,51.32,9620,9671,1054
51.32,51.56,10886,12557,1055
51.38,51.42,8149,9313,1056
51.39,51.43,12773,12926,1057
51.42,51.49,9687,9889,1058
51.48,51.5,8337,9689,1059
51.52,51.59,6713,7129,1060
51.56,51.88,11425,13931,1061
51.63,51.65,9712,11374,1062
51.71,51.72,10497,11466,1063
51.84,51.99,6298,7590,1064
51.96,52.23,8132,11459,1065
52.19,52.38,14114,15463,1066
52.29,52.37,10720,11671,1067
52.35,52.39,14997,18799,1068
52.38,52.45,9841,11591,1069
52.52,52.83,14926,20986,1070
52.7,52.86,12121,13193,1071
52.87,52.94,8379,8980,1072
52.91,53.12,10217,11386,1073
52.95,53.1,5013,5572,1074
53.11,53.19,5347,7332,1075
53.18,53.25,13329,15314,1076
53.19,53.26,19110,19283,1077
53.21,53.32,5042,5212,1078
53.23,53.5,5390,6986,1079
53.23,53.25,17397,18604,1080
53.23,53.26,9084,9740,1081
53.31,53.41,13415,13891,1082
53.34,53.45,6943,9014,1083
53.36,53.48,12121,13371,1084
53.37,53.46,11046,11451,1085
53.38,53.49,9722,10206,1086
53.46,53.51,7969,9806,1087
53.47,53.58,21570,21828,1088
53.49,53.63,6270,6561,1089
53.61,53.69,7743,8207,1090
53.61,53.77,10687,10889,1091
53.64,53.77,5464,6187,1092
53.71,53.75,13045,13621,1093
53.79,53.87,6831,8244,1094
53.8,53.94,11228,12525,1095
53.83,53.98,21412,21763,1096
53.84,53.92,9800,10719,1097
53.9,53.93,11072,11072,1098
53.94,53.97,11426,11426,1099
53.95,53.97,6803,9518,1100
53.98,54.01,12811,12897,1101
54.05,54.26,10999,12559,1102
54.15,54.28,11603,13070,1103
54.16,54.31,7936,8842,1104
54.26,54.3,7634,9359,1105
54.3,54.32,12552,14623,1106
54.33,54.69,15702,25021,1107
54.35,54.39,9273,11301,1108
54.35,54.38,30017,32752,1109
54.39,54.63,30190,37469,1110
54.39,54.59,8453,11430,1111
54.41,54.49,12034,12481,1112
54.48,54.5,7461,9446,1113
54.51,54.67,10481,12126,1114
54.53,54.7,10093,11344,1115
54.58,54.92,7444,11570,1116
54.69,54.73,8367,9661,1117
54.79,54.96,9929,10239,1118
54.79,54.87,5872,6054,1119
54.86,54.92,9109,9565,1120
54.89,55.0,7331,8744,1121
54.96,55.02,6246,6290,1122
55.01,55.08,5640,5961,1123
55.05,55.11,8423,8881,1124
55.06,55.18,9638,9655,1125
55.06,55.14,6041,8009,1126
55.11,55.14,7355,9086,1127
55.12,55.23,9133,11227,1128
55.26,55.3,13064,14527,1129
55.26,55.41,6128,8464,1130
55.33,55.36,11811,12948,1131
55.38,55.57,10699,11903,1132
55.43,55.65,10106,10461,1133
55.48,55.52,8370,8450,1134
55.48,55.5,6804,7848,1135
55.51,56.1,6374,6553,1136
55.51,55.65,8900,9216,1137
55.51,55.71,13649,14717,1138
55.52,55.61,7047,10724,1139
55.62,55.96,9784,10688,1140
55.73,56.15,8141,11237,1141
55.74,55.95,10763,11966,1142
55.79,55.83,7397,8073,1143
55.92,56.02,14904,17266,1144
56.0,56.21,8648,10965,1145
56.14,56.17,5679,6331,1146
56.22,56.26,16027,17568,1147
56.25,56.31,8143,8450,1148
56.25,56.28,40844,42670,1149
56.28,56.36,8074,9444,1150
56.35,56.66,5364,6004,1151
56.41,56.44,8758,8835,1152
56.44,56.49,9495,10232,1153
56.51,56.54,8176,8603,1154
56.51,56.7,10659,11783,1155
56.65,56.7,6547,9999,1156
56.71,56.72,12443,13374,1157
56.73,56.97,7788,11202,1158
56.77,56.91,7206,10309,1159
56.78,56.84,14383,18055,1160
56.8,56.86,13839,14344,1161
56.96,57.01,15158,15604,1162
56.98,57.03,10201,10577,1163
56.99,57.05,6637,8604,1164
57.04,57.12,4917,5449,1165
57.05,57.15,16428,19542,1166
57.15,57.52,5536,9913,1167
57.16,57.45,7280,8177,1168
57.23,57.31,10519,10636,1169
57.23,57.25,7782,9419,1170
57.26,57.39,13438,15445,1171
57.27,57.31,10741,11388,1172
57.3,57.52,8125,9487,1173
57.32,57.54,5017,6294,1174
57.33,57.82,10857,11224,1175
57.34,57.58,15873,16761,1176
57.35,57.53,11509,18853,1177
57.54,57.58,7416,10160,1178
57.67,57.94,9890,10405,1179
57.77,57.8,7122,9950,1180
57.8,57.91,11382,13076,1181
57.92,58.0,18793,18928,1182
57.93,57.95,7801,10063,1183
57.96,58.05,10321,13169,1184
57.97,58.3,9960,10930,1185
57.99,58.52,13059,18468,1186
58.25,58.35,11245,13008,1187
58.36,58.49,7919,10506,1188
58.4,58.6,10796,10963,1189
58.42,58.57,15807,16212,1190
58.48,58.55,13008,15524,1191
58.6,58.73,14953,18038,1192
58.69,58.79,11533,12080,1193
58.75,59.05,12584,14401,1194
58.76,59.6,5156,10646,1195
58.99,59.26,6524,15049,1196
59.04,59.13,22334,24964,1197
59.13,59.46,10319,11659,1198
59.18,59.23,12437,13733,1199
59.2,59.4,18127,18822,1200
59.27,59.39,11811,12596,1201
59.28,59.48,12694,13773,1202
59.3,59.38,8677,9693,1203
59.51,59.8,13297,15075,1204
59.52,59.83,11375,12872,1205
59.54,59.71,8837,10295,1206
59.57,59.67,11191,11519,1207
59.68,59.75,10709,10819,1208
59.7,59.9,13847,19096,1209
59.74,59.85,12789,12789,1210
59.74,60.08,8133,9233,1211
59.86,59.93,8849,9567,1212
59.88,59.94,11352,11913,1213
59.9,59.93,19901,21050,1214
59.98,60.07,11585,11585,1215
60.01,60.14,10272,10848,1216
60.08,60.2,7137,7810,1217
60.09,60.13,17056,19026,1218
60.28,60.35,5157,7686,1219
60.32,60.47,9908,10703,1220
60.38,60.52,5294,9877,1221
60.38,60.41,15311,16117,1222
60.39,60.43,11755,13821,1223
60.41,60.45,18494,19163,1224
60.52,61.0,9912,12030,1225
60.54,60.58,5521,5895,1226
60.55,60.66,10799,11283,1227
60.62,60.74,5038,5199,1228
60.64,60.7,9069,9720,1229
60.68,60.73,11334,14388,1230
60.7,60.87,14579,15956,1231
60.7,60.81,11161,13941,1232
60.72,60.95,6649,9112,1233
60.76,60.81,8502,9993,1234
61.08,61.22,5175,7701,1235
61.08,61.18,11025,11257,1236
61.17,61.2,9129,11619,1237
61.2,61.23,12241,13962,1238
61.22,61.27,11607,12726,1239
61.27,61.41,9234,9947,1240
61.37,61.45,7610,13076,1241
61.42,61.54,6083,7553,1242
61.5,61.56,12918,13493,1243
61.54,61.58,18017,18861,1244
61.57,61.61,10926,12593,1245
61.6,61.79,5550,6224,1246
61.74,61.83,9826,9826,1247
62.1,62.16,6532,7439,1248
62.15,62.21,9306,10292,1249
62.2,62.39,8111,10426,1250
62.21,62.23,11039,12164,1251
62.22,62.26,5809,6864,1252
62.26,62.33,13255,14939,1253
62.28,62.41,5931,7513,1254
62.37,62.44,11932,13586,1255
62.37,62.42,10728,10941,1256
62.56,62.98,7397,8792,1257
62.69,62.81,8537,13990,1258
62.71,62.83,10173,10931,1259
62.8,62.95,8659,8911,1260
62.86,62.9,6724,9837,1261
62.91,62.97,11477,11940,1262
62.92,63.09,6146,6530,1263
62.94,63.02,10215,10257,1264
62.98,63.24,9206,12402,1265
62.99,63.03,8365,10257,1266
63.0,63.04,10560,12326,1267
63.01,63.06,15581,16614,1268
63.01,63.05,24281,24324,1269
63.04,63.14,10711,10846,1270
63.16,63.3,8326,9178,1271
63.25,63.34,9385,11840,1272
63.27,63.54,10905,12556,1273
63.34,63.55,9562,15194,1274
63.39,63.43,9985,10782,1275
63.41,63.65,24680,24959,1276
63.45,63.72,8106,10442,1277
63.49,63.74,11927,12537,1278
63.57,63.59,8158,8334,1279
63.66,63.74,23585,24856,1280
63.77,63.89,9315,10918,1281
63.78,63.8,6624,7326,1282
63.84,63.95,9155,9474,1283
63.89,63.99,16018,18838,1284
64.0,64.07,10659,11434,1285
64.02,64.1,11298,11982,1286
64.05,64.25,13805,14373,1287
64.11,64.16,24395,24728,1288
64.32,64.43,11523,12805,1289
64.51,64.68,10406,10639,1290
64.51,64.59,5547,7498,1291
64.54,64.85,9755,11570,1292
64.69,64.78,7907,8008,1293
64.73,64.85,10825,10965,1294
64.76,64.9,13245,13974,1295
64.86,65.01,13572,16039,1296
64.87,65.0,8022,8200,1297
64.88,64.94,11012,11058,1298
64.97,65.22,11153,11456,1299
65.04,65.08,8414,8806,1300
65.07,65.12,14222,14222,1301
65.1,65.39,5268,6035,1302
65.18,65.2,14180,14306,1303
65.2,65.38,12779,13529,1304
65.23,65.3,11162,11162,1305
65.26,65.29,12476,13796,1306
65.44,65.52,12788,13878,1307
65.47,65.55,9456,9922,1308
65.53,65.8,8317,9034,1309
65.54,65.63,17016,17970,1310
65.68,65.78,11124,11240,1311
65.71,65.86,8603,10465,1312
65.75,65.8,6499,6701,1313
65.79,65.84,6949,6999,1314
65.81,65.84,17399,18176,1315
65.89,65.93,8191,9455,1316
65.93,66.17,8107,8573,1317
66.24,66.29,5829,6209,1318
66.34,66.38,5051,5326,1319
66.35,66.5,9076,12734,1320
66.44,66.63,6606,7795,1321
66.53,66.54,9620,10986,1322
66.55,66.58,12506,14144,1323
66.65,66.67,8740,10026,1324
66.75,66.78,11225,12882,1325
66.78,67.22,6333,6811,1326
66.79,66.8,11915,14305,1327
67.0,67.08,10775,10829,1328
67.45,67.53,9901,10655,1329
67.69,67.99,6682,12076,1330
67.69,67.73,9784,9839,1331
67.79,68.06,11248,12775,1332
67.93,68.08,5078,6143,1333
68.01,68.39,6519,9124,1334
68.15,68.35,8750,9546,1335
68.2,68.26,5670,6185,1336
68.28,68.35,11432,11664,1337
68.3,68.32,10306,11211,1338
68.31,68.35,34287,34287,1339
68.36,68.37,11936,12479,1340
68.37,68.58,6374,6690,1341
68.4,68.41,17368,17368,1342
68.41,68.48,13478,13763,1343
68.43,68.44,18915,23816,1344
68.47,68.7,9055,11157,1345
68.63,68.89,9881,11962,1346
68.8,68.86,13042,13379,1347
68.81,68.91,12292,12930,1348
68.9,68.98,22065,22145,1349
69.09,69.29,9063,10275,1350
69.11,69.18,7270,8307,1351
69.17,69.42,12815,13961,1352
69.7,70.1,6278,6525,1353
69.92,70.05,9656,10404,1354
70.11,70.33,6861,11016,1355
70.14,70.16,16964,17487,1356
70.16,70.27,16428,19047,1357
70.4,70.42,12505,13798,1358
70.4,70.42,8637,8688,1359
70.44,70.45,15934,16806,1360
70.49,70.58,21507,21554,1361
70.49,70.78,6034,10066,1362
70.5,70.59,10781,11904,1363
70.57,70.66,12203,12823,1364
70.59,70.66,6743,8785,1365
70.67,70.92,6925,8062,1366
70.68,70.75,13454,15606,1367
70.79,70.83,14074,14294,1368
70.88,70.92,5506,5721,1369
70.95,71.03,5490,6239,1370
70.95,70.99,15952,16224,1371
70.96,71.03,7859,7859,1372
70.96,71.04,11598,14031,1373
71.05,71.07,11036,12210,1374
71.08,71.26,11451,12793,1375
71.09,71.27,5002,5175,1376
71.16,71.21,12966,14654,1377
71.17,71.22,6690,7049,1378
71.18,71.34,8062,8767,1379
71.2,71.26,15065,15691,1380
71.2,71.27,15606,16169,1381
71.24,71.55,11321,14651,1382
71.32,71.44,7556,7691,1383
71.41,71.59,8201,9200,1384
71.49,71.6,12194,12490,1385
71.53,71.8,9572,10575,1386
71.7,72.19,5004,7601,1387
71.76,71.95,8038,9303,1388
71.91,71.98,20274,21751,1389
71.96,72.0,19830,20086,1390
71.98,72.07,29853,30124,1391
72.0,72.07,23722,24304,1392
72.05,72.2,12079,15269,1393
72.06,72.33,19180,19778,1394
72.07,72.14,20050,20139,1395
72.07,72.16,10019,10019,1396
72.08,72.1,30186,30228,1397
72.15,72.23,10512,10512,1398
72.15,72.18,31639,31714,1399
72.16,72.22,20945,21104,1400
72.23,72.28,22389,22389,1401
72.24,72.28,33534,33769,1402
72.25,72.28,9713,9828,1403
72.33,72.4,9713,10073,1404
72.41,72.6,5921,6001,1405
72.47,72.52,7295,7680,1406
72.51,72.58,14924,15431,1407
72.54,72.63,13100,14974,1408
72.59,72.66,11166,13229,1409
72.67,72.67,10479,11220,1410
72.69,72.75,5438,5720,1411
72.76,72.78,10297,11140,1412
72.8,72.9,10436,13071,1413
72.98,73.19,5278,5733,1414
73.36,73.55,6410,9597,1415
73.51,73.64,8776,9915,1416
73.52,73.58,10693,12659,1417
73.54,73.62,17403,18270,1418
73.7,73.85,12428,13820,1419
73.82,73.85,11264,12662,1420
73.84,73.95,15320,16651,1421
74.07,74.34,6032,13527,1422
74.07,75.0,5195,6131,1423
74.1,74.29,12465,13978,1424
74.1,74.57,6472,8775,1425
74.29,74.33,11344,12904,1426
74.34,74.53,12952,14560,1427
74.34,74.44,14463,16120,1428
74.74,75.22,8783,11605,1429
75.12,75.25,6094,8067,1430
75.13,75.36,22940,28747,1431
75.21,75.32,6773,9847,1432
75.22,75.3,6746,7308,1433
75.28,75.35,12084,15160,1434
75.32,75.5,8879,9802,1435
75.33,75.41,7201,7603,1436
75.33,75.55,5612,6403,1437
75.34,75.47,7996,8495,1438
75.41,75.46,21511,25147,1439
75.46,75.63,8445,9963,1440
75.49,75.68,13435,15076,1441
75.52,75.78,6403,7953,1442
75.59,75.73,5120,9405,1443
75.65,75.69,10185,12708,1444
75.7,75.96,6845,9719,1445
75.76,75.82,12071,14737,1446
75.8,75.83,13136,14423,1447
75.83,75.95,8223,8935,1448
75.86,76.08,15253,15751,1449
75.95,76.01,5541,5999,1450
76.03,76.11,5415,5583,1451
76.05,76.25,8040,10747,1452
76.1,76.89,5112,6082,1453
76.12,76.22,17286,20076,1454
76.23,76.41,12612,13075,1455
76.28,76.33,11913,13829,1456
76.34,76.74,9122,10932,1457
76.42,76.47,14341,14737,1458
76.53,76.59,7631,8128,1459
76.62,76.66,7023,8584,1460
76.67,77.0,7106,8711,1461
76.79,76.9,12192,13453,1462
76.89,77.14,10596,11232,1463
76.96,77.29,11130,12599,1464
77.04,77.13,6792,6897,1465
77.04,77.09,7439,7966,1466
77.09,77.15,8047,9092,1467
77.15,77.37,14813,18816,1468
77.2,77.26,5711,6022,1469
77.24,77.27,8936,8936,1470
77.24,77.32,8055,8492,1471
77.25,77.3,9546,10863,1472
77.29,77.39,20614,21147,1473
77.38,77.55,8099,8622,1474
77.39,77.45,18667,18903,1475
77.4,77.51,13587,15886,1476
77.42,77.58,7785,9458,1477
77.45,77.54,25921,29162,1478
77.46,77.69,5909,6175,1479
77.53,77.55,22917,25751,1480
77.57,77.66,15361,16683,1481
77.62,77.76,7697,8490,1482
77.7,77.72,10811,11859,1483
77.72,77.86,12538,14181,1484
77.83,77.99,7969,9374,1485
77.95,78.23,8241,8852,1486
78.14,78.4,5520,5715,1487
78.31,78.45,13406,14188,1488
78.49,78.54,14971,15917,1489
78.52,78.62,26289,30176,1490
78.53,78.63,6457,6728,1491
78.56,78.77,10090,10312,1492
78.61,78.86,17629,20421,1493
78.65,78.67,7060,11035,1494
78.69,78.7,12107,13386,1495
78.72,78.73,15218,16365,1496
78.84,79.0,11462,11592,1497
78.87,79.23,7239,8086,1498
78.89,79.03,20551,21664,1499
79.0,79.35,19512,21667,1500
79.08,79.15,10812,10812,1501
79.13,79.33,13929,14448,1502
79.34,79.35,7399,8172,1503
79.36,79.38,9165,11770,1504
79.44,79.57,11998,12847,1505
79.59,79.7,19893,21032,1506
79.77,79.86,9515,11473,1507
79.88,80.27,20923,21253,1508
79.88,80.25,5399,9286,1509
80.29,80.35,19733,20850,1510
80.31,80.51,11069,18380,1511
80.43,80.49,8321,10727,1512
80.51,80.9,5143,5786,1513
80.51,80.57,6795,8079,1514
80.55,80.59,11706,12321,1515
80.57,80.85,6959,10648,1516
80.59,80.68,12202,12465,1517
80.59,80.9,9960,10831,1518
80.63,80.69,5786,10923,1519
80.81,80.97,8969,10234,1520
80.88,81.04,12033,14257,1521
80.9,81.03,6626,7527,1522
80.91,80.95,10416,11267,1523
80.98,81.33,16191,18340,1524
81.04,81.13,7212,8248,1525
81.04,81.19,9780,10861,1526
81.09,81.28,13272,16312,1527
81.11,81.33,8068,9555,1528
81.15,81.22,6713,7134,1529
81.22,81.31,5363,6093,1530
81.34,81.35,10189,11163,1531
81.39,81.69,5606,5809,1532
81.41,81.55,9864,17490,1533
81.64,81.72,14219,17103,1534
81.86,81.9,14042,18507,1535
81.94,82.05,7669,8146,1536
81.94,81.96,18382,18727,1537
82.01,82.15,12380,13071,1538
82.03,82.19,9230,12445,1539
82.09,82.15,14694,16180,1540
82.16,82.28,7675,8033,1541
82.18,82.25,11207,11630,1542
82.19,82.3,13096,14451,1543
82.25,82.3,10630,12423,1544
82.33,82.47,10900,11716,1545
82.33,82.47,8701,9719,1546
82.74,82.83,5246,10920,1547
82.77,82.85,6317,6463,1548
82.88,83.32,5349,7913,1549
82.99,83.13,7772,8483,1550
83.0,83.11,10036,11640,1551
83.02,83.13,15576,16376,1552
83.1,83.28,16303,19800,1553
83.16,83.19,12937,13685,1554
83.23,83.28,6502,8278,1555
83.31,83.42,8383,8850,1556
83.36,83.49,11325,15566,1557
83.47,83.94,7246,7364,1558
83.5,83.61,8256,9220,1559
83.51,83.7,5366,6073,1560
83.68,83.76,10493,13100,1561
83.7,83.75,22482,23390,1562
83.92,84.0,5966,7430,1563
84.03,84.07,8756,10128,1564
84.08,84.38,7794,8070,1565
84.56,84.62,8685,14491,1566
84.58,84.75,11911,12255,1567
84.81,84.93,6461,7610,1568
85.11,85.18,8762,13255,1569
85.18,85.3,10634,11008,1570
85.2,85.35,11329,15342,1571
85.22,85.37,21278,30692,1572
85.23,85.31,6675,8951,1573
85.33,85.35,10313,11115,1574
85.45,85.56,5560,6923,1575
85.76,85.8,11236,12924,1576
85.79,85.99,18844,19357,1577
85.84,86.11,8154,8404,1578
85.86,85.94,9529,9654,1579
85.98,86.2,9091,9841,1580
85.99,86.09,10341,13964,1581
86.1,86.17,13766,17525,1582
86.12,86.16,24085,33143,1583
86.19,86.36,11403,17653,1584
86.21,86.42,12840,32144,1585
86.21,86.29,9716,9716,1586
86.22,86.29,6593,8966,1587
86.32,86.36,5031,5218,1588
86.33,86.51,5156,5869,1589
86.38,86.65,7210,16865,1590
86.43,86.65,9841,11243,1591
86.44,86.84,8047,10470,1592
86.5,86.68,19524,20087,1593
86.6,86.9,5123,6435,1594
86.61,86.89,6468,7602,1595
86.69,86.72,6090,7386,1596
86.73,86.79,7576,9691,1597
86.95,87.02,7384,7518,1598
86.99,87.03,15172,15805,1599
87.03,87.53,8928,13590,1600
87.16,87.22,13636,14720,1601
87.22,87.3,15707,15940,1602
87.28,87.44,12461,13093,1603
87.32,87.41,6458,8928,1604
87.36,87.55,11241,11772,1605
87.41,87.47,18109,18651,1606
87.52,87.73,12368,13161,1607
87.53,87.68,5047,5152,1608
87.68,87.75,6062,6899,1609
87.88,88.14,7810,8241,1610
87.89,87.97,9570,13190,1611
87.94,88.2,10666,10931,1612
88.08,88.12,4988,8289,1613
88.14,88.15,5192,6996,1614
88.19,88.22,4954,9474,1615
88.23,88.26,10832,10832,1616
88.24,88.3,5319,6681,1617
88.26,88.38,11453,11793,1618
88.26,88.32,8374,9470,1619
88.32,88.5,7604,9786,1620
88.37,88.45,13783,14556,1621
88.43,88.57,13563,19041,1622
88.48,88.67,10715,11703,1623
88.5,88.64,5393,5500,1624
88.54,88.58,14447,15238,1625
88.57,88.72,7004,9259,1626
88.58,88.71,10809,10863,1627
88.64,88.74,19067,20011,1628
88.67,88.94,8878,10452,1629
88.69,88.82,4964,5983,1630
88.75,89.07,9947,10657,1631
88.75,88.82,21105,21212,1632
88.76,88.78,14489,15401,1633
88.8,88.92,7162,8610,1634
88.84,88.98,5474,6360,1635
88.89,88.94,19765,19897,1636
88.98,88.99,12977,13545,1637
88.99,89.0,11937,12032,1638
89.0,89.09,6956,10865,1639
89.07,89.14,10702,11208,1640
89.12,89.23,7109,7871,1641
89.27,89.4,6118,7553,1642
89.35,89.46,4990,5920,1643
89.38,89.65,6788,10137,1644
89.42,89.43,9079,10701,1645
89.43,89.51,12287,13240,1646
89.51,89.57,9749,11652,1647
89.52,89.63,7916,8097,1648
89.6,89.69,8155,8868,1649
89.64,89.7,12888,14413,1650
89.69,89.8,6756,9004,1651
89.72,89.77,14400,14735,1652
89.75,89.77,14400,15422,1653
89.77,89.91,7901,8023,1654
89.82,89.89,9136,10078,1655
89.83,90.0,15933,17587,1656
89.84,90.01,35956,39240,1657
89.93,90.06,11580,12357,1658
89.97,90.18,7696,8105,1659
90.03,90.18,15382,16714,1660
90.03,90.43,19136,20912,1661
90.07,90.32,11489,12502,1662
90.1,90.12,11840,11840,1663
90.13,90.21,17985,19337,1664
90.13,90.15,14462,15199,1665
90.13,90.16,10734,10980,1666
90.15,90.25,16879,19290,1667
90.18,90.57,7282,8465,1668
90.31,90.42,10410,10774,1669
90.35,90.61,19290,20342,1670
90.38,90.45,11837,12342,1671
90.44,90.8,11533,11708,1672
90.59,90.94,7841,8317,1673
90.7,90.75,11928,12957,1674
90.94,90.98,10523,10832,1675
90.94,91.01,17195,18265,1676
91.0,91.18,16958,20166,1677
91.0,91.06,7160,8583,1678
91.01,91.22,20689,22080,1679
91.09,91.19,10898,14621,1680
91.12,91.53,7996,9122,1681
91.17,91.37,5155,5665,1682
91.26,91.43,18137,20109,1683
91.58,91.71,16049,16635,1684
91.59,91.77,8006,8507,1685
91.67,91.75,6603,8287,1686
91.74,91.79,9056,9312,1687
91.8,91.82,10411,10447,1688
91.82,91.88,11289,11362,1689
91.82,91.88,8200,8200,1690
91.84,91.91,7127,7490,1691
91.93,91.98,10141,10264,1692
91.93,92.12,5390,7579,1693
92.03,92.1,8157,8414,1694
92.08,92.15,11337,11980,1695
92.15,92.2,13299,14440,1696
92.18,92.34,7950,8591,1697
92.26,92.36,15386,15932,1698
92.57,92.65,13634,15557,1699
92.62,92.72,13036,13420,1700
92.72,92.85,11013,12523,1701
92.99,93.14,8528,9334,1702
93.08,93.25,9825,15986,1703
93.26,93.51,8174,9334,1704
93.33,93.45,9756,14112,1705
93.48,93.56,7906,9290,1706
93.55,93.99,5754,10297,1707
93.72,94.17,10314,11050,1708
93.95,94.09,7590,7637,1709
94.03,94.06,7402,10689,1710
94.11,94.18,5134,6221,1711
94.21,94.33,5853,7264,1712
94.22,94.25,7449,10360,1713
94.24,94.35,10616,10893,1714
94.25,94.3,11487,12708,1715
94.26,94.79,18850,20453,1716
94.4,94.47,4957,5236,1717
94.42,94.54,6513,7659,1718
94.54,94.58,8805,8862,1719
94.69,94.76,7433,8294,1720
94.75,94.78,5604,7044,1721
94.79,94.99,14043,14514,1722
94.79,94.84,11580,11816,1723
94.89,95.03,8559,9595,1724
94.9,95.0,11719,15901,1725
95.03,95.1,5744,10285,1726
95.05,95.12,17990,19926,1727
95.08,95.19,10642,11009,1728
95.11,95.29,9325,10344,1729
95.15,95.56,17156,20144,1730
95.16,95.26,5445,7988,1731
95.22,95.33,10464,10643,1732
95.23,95.34,15423,17096,1733
95.33,95.36,10980,13431,1734
95.33,95.56,8313,13810,1735
95.33,95.5,5260,5568,1736
95.38,95.47,17753,21578,1737
95.38,95.47,15065,16445,1738
95.4,95.49,11109,11888,1739
95.44,95.66,7714,9149,1740
95.48,95.74,6275,7406,1741
95.49,95.62,11360,13093,1742
95.5,95.6,9755,13577,1743
95.56,95.84,8198,14909,1744
95.6,95.65,5835,6358,1745
95.71,95.96,7672,8647,1746
95.73,95.85,8285,9261,1747
95.9,96.24,7182,8088,1748
95.96,97.0,5184,9620,1749
96.25,96.32,12812,13043,1750
96.36,97.31,5129,10643,1751
96.49,96.57,10541,11239,1752
96.61,96.69,16727,16804,1753
96.68,97.09,10833,12320,1754
96.74,96.86,5630,7638,1755
96.87,96.96,15510,15860,1756
96.96,97.14,12918,14673,1757
97.0,97.49,9021,12973,1758
97.06,97.37,14234,15002,1759
97.11,97.19,15660,15989,1760
97.25,97.69,9078,12863,1761
97.37,97.48,22626,23504,1762
97.44,97.48,17879,18002,1763
97.48,97.53,9736,9791,1764
97.5,97.6,14920,16194,1765
97.53,97.58,20487,20816,1766
97.63,97.7,18129,18348,1767
97.75,97.8,7981,8036,1768
98.07,98.2,5753,6943,1769
98.55,98.8,19949,20716,1770
98.89,99.06,11039,11684,1771
99.05,99.21,6147,7007,1772
99.12,99.32,11092,11767,1773
99.22,99.47,17168,17555,1774
99.33,99.72,5387,7149,1775
99.46,99.51,6215,7745,1776
99.52,99.58,10835,11935,1777
99.54,99.72,11879,12273,1778
99.67,99.7,6968,8174,1779
99.71,99.82,7142,7659,1780
99.77,99.88,8646,13790,1781
99.85,99.89,6346,8110,1782
99.9,99.9,7602,9328,1783
99.91,100.05,7196,7298,1784
99.93,100.05,11359,11968,1785
99.93,100.14,4962,5473,1786
99.95,100.19,9684,9887,1787
100.06,100.07,8618,10598,1788
100.08,100.11,6208,7399,1789
100.11,100.29,10648,12070,1790
100.13,100.19,6122,7552,1791
100.19,100.21,5009,5216,1792
100.19,100.41,8260,9938,1793
100.23,100.42,5113,5825,1794
100.44,100.51,33857,35041,1795
100.47,100.73,8346,12487,1796
100.49,100.58,12405,14955,1797
100.84,100.91,12405,13063,1798
101.59,101.73,7839,8740,1799
101.75,101.98,9191,10994,1800
102.02,102.34,9473,11671,1801
102.16,102.3,8289,13362,1802
102.3,102.4,8049,9019,1803
102.31,102.35,19604,21954,1804
102.32,102.4,15062,19947,1805
102.36,102.39,15458,18706,1806
102.39,102.48,18122,21003,1807
102.43,102.71,6226,9716,1808
102.48,102.59,10389,11424,1809
102.49,102.98,5384,7361,1810
102.49,102.72,8284,10221,1811
102.5,102.51,22123,22712,1812
102.5,102.58,5034,5870,1813
102.58,102.76,11904,11992,1814
102.66,102.96,11887,12786,1815
102.68,102.77,5510,6310,1816
102.74,103.14,15913,20162,1817
102.78,103.45,6905,9733,1818
102.79,102.8,6352,6394,1819
102.8,102.92,7931,7931,1820
102.86,103.19,5484,13561,1821
102.87,103.05,8749,10894,1822
102.87,102.97,5437,6546,1823
102.9,103.09,13729,14626,1824
102.94,103.04,21386,21772,1825
102.98,103.16,11958,12590,1826
103.02,103.11,18255,22858,1827
103.06,103.08,8896,10069,1828
103.21,103.24,8446,10248,1829
103.26,103.35,7196,10063,1830
103.29,103.72,7537,8411,1831
103.31,103.35,5253,5593,1832
103.4,103.42,8387,9650,1833
103.43,103.57,14582,15832,1834
103.6,103.62,14048,14388,1835
103.62,103.71,12396,12784,1836
103.62,103.78,19119,19555,1837
103.68,103.74,11659,11723,1838
103.7,103.78,20154,20480,1839
103.73,103.9,14437,15855,1840
103.77,103.88,9326,14982,1841
103.83,103.91,19500,19664,1842
103.85,103.87,10408,11214,1843
103.86,103.9,20208,23039,1844
103.86,103.91,12641,12749,1845
103.88,103.93,9646,10408,1846
103.95,104.19,11334,11878,1847
104.06,104.11,6434,9483,1848
104.08,104.16,10309,10480,1849
104.4,104.46,8960,10357,1850
104.48,104.8,9811,10938,1851
104.53,104.65,18563,18909,1852
104.78,104.86,6688,7453,1853
104.96,105.05,6910,6946,1854
104.97,105.07,8641,9191,1855
105.1,105.2,7442,7721,1856
105.11,105.43,8118,8723,1857
105.35,105.84,5018,8168,1858
105.6,106.1,6218,8405,1859
105.73,105.96,7554,17129,1860
105.95,106.07,4998,5414,1861
106.03,106.16,11360,16053,1862
106.04,106.11,9535,10609,1863
106.06,106.49,5127,13590,1864
106.11,106.23,12768,16933,1865
106.12,106.16,11496,12383,1866
106.35,106.39,5194,5287,1867
106.54,106.72,8663,13470,1868
106.6,107.38,5753,6392,1869
106.74,106.79,13779,15719,1870
106.76,106.8,13867,15278,1871
106.81,106.86,8443,10427,1872
106.88,106.99,11177,12395,1873
107.03,107.91,5450,12196,1874
107.09,107.49,20796,23282,1875
107.16,107.45,10587,12395,1876
107.18,107.48,7875,8153,1877
107.43,107.65,9784,14948,1878
107.59,107.72,10918,10956,1879
107.67,107.99,6372,11374,1880
107.94,108.08,5061,8673,1881
108.18,108.37,5644,7688,1882
108.2,108.38,6316,9470,1883
108.52,108.81,6326,9369,1884
108.59,109.07,6273,8000,1885
108.96,109.44,6989,8480,1886
108.99,109.06,14364,14424,1887
109.32,109.49,11688,13829,1888
109.46,109.54,15554,15911,1889
109.49,109.66,5189,5349,1890
109.56,109.81,11385,13420,1891
109.58,109.64,10405,10484,1892
109.7,109.77,9033,9229,1893
109.71,109.9,12096,12355,1894
109.82,109.87,7746,8245,1895
110.29,110.58,7936,15336,1896
110.29,110.43,15928,19032,1897
110.3,110.34,23721,24744,1898
110.35,110.42,12099,12791,1899
110.38,110.43,26401,28813,1900
110.45,110.5,21285,25475,1901
110.54,110.69,11930,13191,1902
110.63,110.69,9977,12551,1903
110.78,110.83,11757,12686,1904
110.81,110.88,8972,11562,1905
111.0,111.04,9066,9164,1906
111.04,111.07,7258,7453,1907
111.05,111.06,5401,6476,1908
111.06,111.09,7307,11131,1909
111.09,111.25,6328,10092,1910
111.15,111.19,14047,14047,1911
111.21,111.4,8500,11158,1912
111.21,111.26,6763,8384,1913
111.21,111.25,12621,13315,1914
111.26,111.47,7363,7691,1915
111.38,111.54,13584,14316,1916
111.4,111.49,6739,6826,1917
111.44,111.74,15941,16599,1918
111.46,111.58,7161,9474,1919
111.54,111.74,7998,8085,1920
111.55,111.56,14278,15279,1921
111.59,111.71,12644,13687,1922
111.65,111.72,13859,18288,1923
111.68,111.8,7477,15827,1924
111.69,111.84,6174,7173,1925
111.77,111.89,33747,37107,1926
111.79,111.82,40440,41247,1927
111.83,111.84,10646,12427,1928
111.83,111.87,39634,41247,1929
111.83,111.87,37591,38989,1930
111.83,111.91,33021,35440,1931
111.85,112.16,15385,16656,1932
111.85,111.94,31193,33344,1933
111.85,112.19,7690,10029,1934
111.96,112.1,5661,6489,1935
112.24,112.32,8408,9472,1936
112.28,112.48,7684,11334,1937
112.34,112.64,8357,9724,1938
112.36,112.55,12324,14859,1939
112.42,112.65,10933,11928,1940
112.47,112.54,13373,13413,1941
112.58,112.66,5511,5987,1942
112.64,112.67,9670,9875,1943
112.66,112.74,11534,14195,1944
112.68,112.83,11222,11571,1945
112.76,112.93,12399,12506,1946
112.77,112.8,7520,7638,1947
112.86,112.96,6996,7161,1948
112.86,112.9,9778,9992,1949
112.86,112.89,8255,8449,1950
112.94,113.09,8880,9098,1951
112.99,113.1,10345,11040,1952
113.21,113.6,18641,22005,1953
113.22,113.3,9658,9862,1954
113.25,113.34,10322,10883,1955
113.35,113.49,7515,9199,1956
113.39,113.57,9454,10220,1957
113.41,113.49,12185,12681,1958
113.54,113.68,12721,14630,1959
113.83,113.87,19070,19147,1960
113.85,113.9,14692,15469,1961
113.89,113.92,14840,17432,1962
113.96,114.1,15462,16226,1963
114.03,114.48,18752,20231,1964
114.07,114.16,20187,20361,1965
114.11,114.22,6153,6348,1966
114.17,114.26,21712,22684,1967
114.2,114.48,9541,9588,1968
114.25,114.3,9649,17470,1969
114.33,114.35,14393,17726,1970
114.42,114.5,11123,18367,1971
114.61,114.67,6811,8847,1972
114.62,114.65,15233,19907,1973
114.66,114.76,11893,12168,1974
114.67,114.76,9356,9356,1975
114.71,114.73,15419,17323,1976
114.78,114.94,18931,19732,1977
114.78,115.3,7659,12058,1978
114.84,114.89,16719,18600,1979
115.03,115.31,17831,20361,1980
115.07,115.11,11398,14037,1981
115.1,115.48,8044,10518,1982
115.11,115.18,15467,15976,1983
115.19,115.32,11508,12256,1984
115.27,115.31,15435,15495,1985
115.32,115.36,10167,11192,1986
115.39,115.43,9664,12349,1987
115.44,115.54,9832,9832,1988
115.49,115.64,12069,13188,1989
115.52,115.65,9496,10447,1990
115.53,115.56,7227,10980,1991
115.53,115.58,7640,7812,1992
115.59,115.87,10727,11590,1993
115.74,115.78,6475,6979,1994
115.79,115.86,13803,19509,1995
115.79,115.82,7445,7488,1996
115.97,116.1,18935,20393,1997
115.99,116.11,11913,12013,1998
116.0,116.16,10745,11226,1999
116.03,116.32,9932,11025,2000
116.1,116.32,12118,13019,2001
116.14,116.19,20864,21079,2002
116.15,116.23,7402,7445,2003
116.52,116.68,10882,10882,2004
117.13,117.28,7548,7788,2005
117.19,117.23,6425,8171,2006
117.19,117.4,8123,15405,2007
117.31,117.48,7261,10039,2008
117.34,117.37,6542,9800,2009
117.36,117.41,7740,7984,2010
117.52,117.64,9129,9800,2011
117.57,117.65,13776,15196,2012
117.59,117.73,10518,11477,2013
117.62,117.67,12890,14016,2014
117.76,117.94,9453,13640,2015
117.96,118.0,12024,12072,2016
117.99,118.14,9237,13369,2017
118.0,118.18,7075,10823,2018
118.05,118.09,13081,13081,2019
118.08,118.18,10006,10582,2020
118.21,118.26,11207,11402,2021
118.22,118.58,8036,14976,2022
118.28,118.29,9333,10390,2023
118.43,118.6,6498,9814,2024
118.59,118.67,13845,15322,2025
118.9,118.96,11212,11212,2026
118.99,119.25,10158,10223,2027
119.06,119.32,10345,11114,2028
119.13,119.21,12035,12068,2029
119.26,119.59,10109,11332,2030
119.33,119.38,8030,10817,2031
119.35,119.63,15158,17170,2032
119.47,119.58,7647,8503,2033
119.6,119.67,8881,13226,2034
119.71,119.72,11480,12886,2035
119.72,119.74,9137,10901,2036
119.74,119.8,8163,9973,2037
119.81,119.86,11040,12386,2038
119.92,119.93,8602,9395,2039
119.94,120.21,7082,7481,2040
120.08,120.23,7748,10236,2041
120.22,120.29,7522,8042,2042
120.24,120.28,11076,13737,2043
120.29,120.36,9408,12710,2044
120.34,120.42,8299,10049,2045
120.49,120.87,7291,8975,2046
120.51,120.64,7621,13877,2047
120.52,120.77,14425,16165,2048
120.54,120.68,21623,23371,2049
120.62,120.7,15371,16925,2050
121.0,121.12,5008,5447,2051
121.02,121.19,8381,10518,2052
121.05,121.09,15458,15696,2053
121.11,121.15,14318,14413,2054
121.14,121.25,8314,8435,2055
121.16,121.23,12846,13083,2056
121.2,121.3,5697,6853,2057
121.22,121.27,11278,13131,2058
121.28,121.38,10803,10898,2059
121.31,121.45,19736,20444,2060
121.31,121.41,13667,14518,2061
121.36,121.75,9258,10786,2062
121.39,121.98,10139,11903,2063
121.45,121.92,16831,20800,2064
121.47,121.59,20603,20846,2065
121.69,121.85,18717,19508,2066
121.93,122.11,18958,19961,2067
121.97,122.07,5492,10205,2068
122.09,122.33,11035,11488,2069
122.13,122.18,17321,19327,2070
122.27,122.32,13202,13783,2071
122.47,122.58,7372,7925,2072
122.72,122.95,7213,7731,2073
122.75,122.82,10738,11390,2074
122.76,123.11,19346,19629,2075
122.78,122.86,13076,13173,2076
122.87,122.98,11039,11843,2077
122.92,122.95,5515,6167,2078
123.31,123.33,6218,9131,2079
123.36,123.74,11003,13939,2080
123.65,123.96,4955,7888,2081
124.32,124.38,14471,14677,2082
124.65,124.68,11528,11852,2083
124.65,124.78,14350,14834,2084
124.77,124.83,12458,13288,2085
124.93,124.98,6936,7418,2086
124.94,125.11,11756,12279,2087
125.11,125.18,5444,6356,2088
125.15,125.2,12582,12582,2089
125.41,125.53,5045,5465,2090
125.47,125.51,12646,12775,2091
125.55,125.68,7578,9498,2092
125.65,125.77,6124,6167,2093
125.82,125.88,11937,12001,2094
125.88,126.55,5062,8719,2095
126.29,126.34,13679,13743,2096
126.43,126.51,18545,18882,2097
126.59,126.66,9273,11086,2098
126.6,126.61,17631,18384,2099
126.61,126.68,6529,6578,2100
126.62,126.78,19155,19810,2101
126.63,126.66,19889,20720,2102
126.67,127.18,18554,20628,2103
126.7,126.78,6382,6529,2104
126.72,126.83,10263,10931,2105
126.8,126.99,19959,20708,2106
126.97,127.08,10238,10845,2107
126.98,127.03,9658,9822,2108
127.08,127.12,9522,9522,2109
127.09,127.28,12987,16814,2110
127.13,127.16,9806,11537,2111
127.17,127.21,6329,8566,2112
127.17,127.24,12059,14625,2113
127.2,127.33,5470,6060,2114
127.22,127.25,20324,20810,2115
127.22,127.25,10546,13509,2116
127.27,127.29,11077,12605,2117
127.29,127.31,7088,7843,2118
127.45,127.53,11731,12620,2119
127.67,127.7,19371,21319,2120
127.69,127.92,11278,12736,2121
127.72,127.92,9763,10923,2122
127.72,127.92,12498,14484,2123
127.72,127.88,5012,7717,2124
127.88,128.44,6150,7934,2125
127.89,128.01,7696,8777,2126
127.95,128.0,22271,24683,2127
128.01,128.11,11913,15230,2128
128.08,128.17,7976,8025,2129
128.11,128.35,5762,6729,2130
128.13,128.2,21203,24195,2131
128.16,128.25,12987,12987,2132
128.2,128.35,8567,11223,2133
128.23,128.29,12035,12930,2134
128.24,128.31,6865,11215,2135
128.25,128.32,5357,6147,2136
128.31,128.4,8259,13304,2137
128.32,128.34,21972,23641,2138
128.34,128.4,19620,20342,2139
128.35,128.57,15641,20097,2140
128.36,128.44,24855,26389,2141
128.38,128.68,6444,6741,2142
128.42,128.48,11594,12390,2143
128.43,128.53,8438,9999,2144
128.45,128.47,26913,28447,2145
128.54,128.54,8521,8931,2146
128.55,128.87,7751,15657,2147
128.59,128.75,5703,13225,2148
128.61,128.85,15609,27437,2149
128.63,128.65,24405,24966,2150
128.65,128.68,23918,26440,2151
128.68,128.76,25228,26838,2152
128.7,129.01,7426,8265,2153
128.71,129.12,6079,14766,2154
128.75,128.82,11793,15040,2155
128.78,128.8,28100,28510,2156
128.81,128.97,9661,9758,2157
128.87,128.9,7176,8405,2158
128.87,128.89,17656,19933,2159
128.88,129.07,12520,29152,2160
128.92,128.98,6737,7088,2161
129.02,129.15,10358,10914,2162
129.07,129.14,7573,10000,2163
129.08,129.11,24827,27298,2164
129.13,129.18,8055,18640,2165
129.17,129.2,23041,25085,2166
129.17,129.29,13355,21784,2167
129.19,129.26,11221,12082,2168
129.19,129.35,9417,9889,2169
129.24,129.28,7059,10465,2170
129.31,129.32,12299,15548,2171
129.33,129.46,6011,11839,2172
129.37,129.48,15443,18797,2173
129.38,129.51,11042,11146,2174
129.42,129.46,11618,14867,2175
129.52,129.56,9316,11133,2176
129.64,129.77,5523,17504,2177
129.66,129.88,8952,10237,2178
129.67,129.75,13295,24299,2179
129.79,129.89,22178,23195,2180
129.8,130.33,15260,25773,2181
129.85,130.33,7745,15769,2182
129.9,130.55,5296,7811,2183
130.02,130.17,19130,22417,2184
130.07,130.49,10044,14296,2185
130.1,130.41,20760,27865,2186
130.1,130.24,24808,27679,2187
130.22,130.26,28360,30708,2188
130.27,130.31,30597,36796,2189
130.48,130.59,6901,7243,2190
130.55,130.66,8772,10322,2191
130.62,130.78,5117,5273,2192
130.62,130.99,6073,7546,2193
130.65,131.03,11352,13132,2194
130.67,131.27,6134,8528,2195
130.86,131.06,8405,9387,2196
131.04,131.15,19700,21603,2197
131.05,131.12,10001,10804,2198
131.12,131.19,13930,15012,2199
131.2,131.21,11309,12181,2200
131.21,131.3,12908,15282,2201
131.25,131.49,9080,12272,2202
131.27,131.6,5888,7485,2203
131.34,131.41,5010,5543,2204
131.34,131.63,11474,15096,2205
131.65,131.86,9904,11260,2206
132.07,132.14,20329,20898,2207
132.21,132.44,19466,19969,2208
132.42,132.54,8979,9092,2209
132.44,132.5,18056,21700,2210
132.46,132.55,7391,13664,2211
132.56,132.59,8484,9041,2212
132.68,132.72,15577,17007,2213
132.75,133.09,21955,23165,2214
132.87,132.96,12333,13213,2215
133.15,133.21,7054,11288,2216
133.17,133.45,17655,23151,2217
133.18,133.23,14684,14931,2218
133.23,133.39,12498,13282,2219
133.25,133.37,9030,11453,2220
133.31,133.39,26801,29614,2221
133.38,133.91,17735,25004,2222
133.39,133.44,8837,8941,2223
133.45,133.46,9158,9818,2224
133.47,133.51,13282,19441,2225
133.57,133.88,10239,11314,2226
133.57,133.71,24885,25899,2227
133.6,133.93,4976,7150,2228
133.62,134.01,9518,14042,2229
133.68,133.91,24161,28226,2230
133.7,134.17,7117,8297,2231
133.8,133.88,18491,20569,2232
133.85,133.91,29691,31960,2233
133.95,134.03,20143,21473,2234
