t_sec_min,t_sec_max,f_hz_min,f_hz_max,tonal_id
0.8,0.83,7332,10352,1
0.85,0.87,12552,15788,2
0.89,0.92,16565,17989,3
0.95,1.12,13933,18377,4
1.12,1.15,10136,11474,5
1.19,1.22,10222,11905,6
1.23,1.27,13372,18247,7
1.24,1.29,33278,37372,8
1.3,1.49,10007,19587,9
1.35,1.39,38298,39175,10
1.39,1.41,34852,36112,11
1.42,1.43,32422,33961,12
2.26,2.55,12479,17304,13
2.64,2.77,5846,9285,14
3.22,3.91,7235,18156,15
3.3,3.53,28165,35988,16
3.53,3.61,19121,26997,17
3.62,3.64,20530,26279,18
3.65,3.75,32746,36205,19
3.82,3.86,33735,35846,20
8.01,8.04,14258,15564,21
8.01,8.75,6968,18292,22
8.05,8.09,19018,23747,23
8.1,8.7,21139,36596,24
8.7,8.71,27369,29370,25
8.73,8.74,22695,27690,26
8.75,8.75,20734,21151,27
10.34,10.46,14276,15370,28
10.65,10.71,15471,16853,29
10.78,11.15,11173,17283,30
10.92,11.39,10522,17384,31
11.03,11.09,26211,28840,32
11.13,11.18,23918,25820,33
11.15,11.33,4915,9871,34
11.22,11.29,11337,13898,35
11.25,11.29,22252,22586,36
11.42,11.48,5004,11831,37
11.48,11.88,11241,17356,38
11.9,12.01,6265,9778,39
12.78,13.28,7003,18854,40
12.79,12.84,14303,19522,41
12.91,13.16,30678,37660,42
13.26,13.28,22382,30987,43
13.28,13.87,10878,18497,44
13.28,13.56,29187,37136,45
13.56,13.84,21715,36910,46
14.5,14.66,25921,27962,47
14.52,14.95,13744,16969,48
15.04,15.58,9926,16820,49
15.14,15.28,23516,28178,50
15.34,15.44,21433,22725,51
17.12,17.4,10600,12577,52
17.48,18.72,9272,17820,53
18.1,18.51,20514,31181,54
19.17,19.5,10531,13572,55
19.22,19.35,32275,37042,56
19.26,19.38,22951,25200,57
19.54,19.6,12463,13546,58
19.62,19.68,10515,11935,59
19.82,19.97,11138,13952,60
19.87,19.93,24808,25971,61
19.88,19.92,36734,38741,62
19.93,19.94,39949,40646,63
19.96,19.97,40983,41809,64
19.97,20.1,26588,28821,65
19.98,20.03,42005,43107,66
20.02,20.16,11999,14435,67
21.38,21.46,22176,22613,68
21.57,21.66,21568,22412,69
24.49,24.59,45901,45938,70
24.64,24.71,41422,45679,71
24.66,24.84,38312,46309,72
25.19,26.07,5710,18288,73
25.23,25.25,18015,22771,74
25.27,25.29,26339,29821,75
25.3,25.41,32963,36627,76
25.46,25.57,23324,35086,77
25.58,25.67,41912,45040,78
25.58,25.67,29525,33736,79
25.58,25.87,20941,36251,80
25.67,25.68,45677,47907,81
25.9,26.03,17686,35936,82
26.03,26.07,19127,26126,83
26.04,26.06,12485,14492,84
30.72,30.76,33262,35526,85
33.41,33.72,9656,15369,86
37.71,37.8,11880,14293,87
42.15,42.22,15385,20057,88
52.47,52.75,26660,30141,89
55.72,56.42,7251,7795,90
56.56,56.67,10745,12552,91
56.73,57.0,8546,9989,92
57.28,57.37,12354,13441,93
57.31,57.85,9606,13662,94
57.4,57.54,9180,12037,95
57.58,57.64,7956,8714,96
57.76,57.85,19503,23040,97
57.87,58.11,9354,13050,98
57.88,58.37,27003,40526,99
57.89,59.33,17953,27716,100
57.95,58.02,45292,48452,101
58.19,59.34,8966,13824,102
58.23,58.24,49073,49988,103
58.26,58.33,42457,46976,104
58.34,58.35,38410,39946,105
58.35,58.41,44990,49988,106
58.37,58.52,35987,49220,107
58.38,59.36,25873,41542,108
58.73,58.8,44328,49948,109
58.84,58.9,36474,40151,110
58.93,59.0,43644,48809,111
59.2,59.26,45467,50024,112
60.16,60.24,23668,25472,113
60.29,60.42,24003,25529,114
60.47,60.53,24484,25982,115
61.92,62.26,9218,12942,116
61.93,62.53,25511,40672,117
61.96,62.22,19730,25432,118
61.99,62.06,40894,44093,119
62.08,62.17,45624,48823,120
62.26,62.52,17614,26946,121
62.34,63.47,8530,13516,122
62.54,62.55,19065,20068,123
62.55,62.57,30557,32229,124
62.57,62.95,20461,26908,125
62.58,62.63,33588,35539,126
62.7,62.76,38222,39721,127
62.85,62.86,36829,37874,128
62.94,62.95,30801,32229,129
62.98,63.02,17253,18027,130
63.03,63.49,17567,27037,131
63.1,63.13,34764,35864,132
63.33,63.39,33997,38392,133
63.49,64.69,19289,34661,134
63.49,64.71,9662,17355,135
63.72,63.88,44188,47915,136
64.17,64.61,29911,44391,137
64.84,65.22,8014,13316,138
64.91,65.12,19997,26206,139
65.29,65.5,9078,12442,140
65.55,65.56,13994,15092,141
65.56,66.82,9526,17533,142
65.6,66.07,27230,32345,143
65.65,65.81,7948,13359,144
65.65,65.66,25944,26598,145
65.69,65.72,22569,24485,146
65.7,65.72,40358,41387,147
65.78,66.02,42702,47132,148
66.1,66.89,18548,34875,149
66.44,66.79,28997,39937,150
66.85,66.89,9262,9295,151
68.61,69.67,8704,13474,152
68.65,69.14,18191,26484,153
68.66,69.13,27981,39791,154
69.25,69.66,19275,26893,155
69.25,69.38,31977,38039,156
69.57,70.49,8254,16686,157
69.57,69.65,30781,35936,158
69.71,70.15,9365,13617,159
69.71,70.45,18634,27251,160
69.72,69.81,30898,36127,161
70.17,70.62,8907,13646,162
70.35,71.69,7083,18579,163
70.48,70.62,17571,25900,164
70.51,70.52,35047,36155,165
70.53,71.7,14281,33144,166
70.64,71.63,22123,41237,167
70.8,70.85,45087,46148,168
70.86,70.95,42191,43478,169
70.96,71.63,29571,40909,170
71.27,71.52,38247,45595,171
71.81,72.79,7484,16734,172
71.82,72.94,8286,13832,173
71.84,72.28,18525,27025,174
71.87,71.9,31839,33390,175
71.93,72.01,34727,36976,176
72.02,72.12,38471,40669,177
72.14,72.16,38471,40023,178
72.18,72.28,28795,36813,179
72.29,72.32,17664,18092,180
72.31,72.52,18306,27078,181
72.33,72.35,29768,32843,182
72.35,72.43,9451,11811,183
72.36,72.39,24941,25914,184
72.37,72.43,34781,37241,185
72.45,72.51,13501,15449,186
72.48,72.56,17095,19420,187
72.53,72.57,38777,38921,188
72.53,72.65,23976,27666,189
72.57,73.04,21142,37404,190
72.57,73.67,7107,18640,191
72.63,72.74,17601,17818,192
72.64,72.71,31023,36291,193
72.69,72.73,44703,46871,194
72.69,72.72,19750,22210,195
72.79,72.85,20131,23816,196
72.8,72.93,34585,39283,197
72.83,72.87,28256,30118,198
72.84,72.89,12903,14999,199
72.89,73.2,7720,11675,200
72.9,72.99,25045,27647,201
72.93,72.99,44197,46004,202
73.07,73.11,23672,26057,203
73.08,73.66,8629,13637,204
73.09,73.66,14382,20347,205
73.1,73.21,20907,23379,206
73.11,73.15,33573,35235,207
73.15,73.18,19517,21870,208
73.18,73.5,24365,29626,209
73.27,73.56,22619,27148,210
73.62,73.67,18019,21282,211
73.76,74.53,8140,16556,212
73.86,74.47,18759,33107,213
74.5,75.78,7059,19589,214
74.51,74.53,31737,37105,215
74.62,74.71,32841,36240,216
74.72,74.77,29786,31658,217
74.8,75.03,22382,27865,218
74.93,74.98,34235,36077,219
75.06,75.26,19686,21312,220
75.31,75.77,14155,19192,221
76.5,77.4,6902,16733,222
76.51,77.25,18076,33644,223
76.58,76.66,7066,10896,224
76.74,76.77,15098,15927,225
77.14,77.4,7682,11992,226
77.23,78.6,6952,18760,227
77.27,77.33,35863,37509,228
77.33,77.36,34297,35060,229
77.36,77.45,29800,33574,230
77.48,78.29,15894,28154,231
77.51,77.69,34141,39721,232
77.72,77.9,29839,32325,233
77.72,77.8,42319,43150,234
77.81,77.85,40528,41133,235
77.91,78.29,31586,39788,236
77.96,78.48,21262,28778,237
78.36,78.56,13885,15194,238
78.37,78.46,28425,30174,239
78.69,79.53,7692,16825,240
78.79,79.15,27691,33570,241
79.34,80.55,7183,18600,242
79.42,79.57,30443,37135,243
79.53,79.55,7606,8644,244
79.58,80.56,14464,28211,245
79.58,79.66,11221,16615,246
79.59,79.7,36666,41888,247
79.66,80.71,7033,13621,248
79.68,79.91,13294,17875,249
79.69,79.79,35120,35766,250
79.71,80.31,25305,36061,251
79.72,80.08,18357,27099,252
79.76,79.79,29926,31750,253
79.88,80.02,40223,42584,254
79.89,79.91,25914,29343,255
79.93,80.31,9368,17960,256
80.09,80.18,32488,39148,257
80.1,80.26,35359,38350,258
80.11,80.16,22114,24781,259
80.28,80.47,34289,40533,260
80.29,80.52,22243,27277,261
80.31,80.42,31810,33724,262
80.33,80.39,23935,24799,263
80.51,80.54,38510,40623,264
80.54,80.68,16587,25555,265
80.57,80.59,34562,35838,266
80.73,80.9,22776,27324,267
80.74,80.78,34324,36421,268
80.74,81.33,8899,13738,269
80.99,81.54,17511,27877,270
81.18,81.2,34359,35930,271
81.24,81.32,11501,14136,272
81.24,81.29,37444,39600,273
81.35,82.16,7882,16599,274
81.42,81.62,7961,13047,275
81.43,81.57,32638,33420,276
82.45,82.55,31486,37298,277
82.45,83.09,8516,18670,278
82.56,83.08,17211,35336,279
82.6,82.86,33944,48899,280
82.76,82.85,45397,49997,281
82.89,83.06,27606,32485,282
82.95,83.01,39936,42444,283
84.64,85.52,8798,16913,284
85.15,85.27,23709,28513,285
85.33,85.4,20038,21534,286
85.91,87.07,7211,19172,287
85.91,85.92,34124,35183,288
85.93,85.95,35798,38300,289
85.98,87.05,14379,36664,290
86.07,86.65,13597,17294,291
86.14,86.35,27131,29151,292
86.18,87.01,21948,38891,293
86.34,86.38,43196,43948,294
86.4,86.62,37742,41555,295
86.67,86.89,31090,35755,296
86.77,88.38,7301,13624,297
86.77,87.33,9291,16037,298
86.88,87.02,18222,21575,299
86.93,87.13,29345,36582,300
87.11,87.69,16960,27045,301
87.19,87.44,27536,40636,302
87.45,88.43,6575,16680,303
87.51,87.57,32215,35273,304
87.63,87.84,35511,40861,305
87.66,88.23,20549,33414,306
87.75,88.25,18063,27269,307
87.94,88.03,26855,34211,308
88.03,89.2,7015,18100,309
88.04,88.12,33744,36202,310
88.13,88.16,34168,34938,311
88.16,88.17,32586,33291,312
88.17,88.2,30973,31785,313
88.2,88.22,43845,45201,314
88.2,89.19,14115,30090,315
88.27,88.3,23667,25334,316
88.28,88.54,32014,39963,317
88.37,88.42,45630,47081,318
88.56,88.87,34341,40869,319
88.6,88.64,29898,29962,320
88.66,89.0,23851,29385,321
88.9,89.01,31558,33792,322
88.9,89.16,36876,42185,323
89.03,89.1,22511,23268,324
89.08,89.11,30124,30758,325
89.13,89.16,21287,22045,326
89.38,90.29,8714,16944,327
89.7,89.83,30863,33753,328
89.91,89.94,26587,27587,329
89.98,90.08,22312,25255,330
90.05,90.27,11816,14482,331
90.07,90.91,7669,19004,332
90.07,90.91,15551,37979,333
90.1,90.26,18258,21423,334
90.29,90.33,41371,43723,335
90.35,90.63,31921,39409,336
90.64,90.89,23828,30668,337
90.64,90.87,33696,40967,338
91.01,91.09,8552,9438,339
91.18,91.39,10678,12982,340
91.58,92.49,8761,16716,341
91.59,91.66,24876,28380,342
91.71,91.75,29997,31344,343
91.77,92.01,32027,33447,344
92.04,92.14,27145,31353,345
92.2,92.26,23098,24661,346
92.34,93.53,7292,18554,347
92.34,93.52,14533,37225,348
92.6,92.64,39141,41424,349
92.66,92.76,34417,37867,350
92.73,92.76,45683,47464,351
92.77,92.89,42340,44266,352
92.89,93.13,37543,41395,353
92.91,93.49,21837,31015,354
93.12,93.45,37501,47419,355
93.21,93.37,31728,35689,356
93.67,94.29,10661,16651,357
93.71,93.75,24702,27520,358
93.78,93.87,44246,48304,359
93.79,93.81,29696,30674,360
93.87,94.16,32166,33555,361
93.88,94.0,48700,49984,362
93.9,94.13,13799,19870,363
94.08,94.17,47675,50019,364
94.19,94.24,43588,46961,365
94.19,94.21,30108,31291,366
94.2,94.57,6699,11329,367
94.26,94.37,23574,27793,368
94.31,94.47,10866,12616,369
94.52,95.71,7124,18673,370
94.52,95.7,14184,37466,371
94.53,94.65,8500,10198,372
94.61,95.01,12876,18095,373
94.85,95.68,21344,36697,374
94.89,94.94,44943,47638,375
94.95,95.02,43057,44081,376
95.05,95.17,39925,41233,377
95.17,95.25,29690,33625,378
95.18,95.65,19945,27105,379
95.19,95.66,10156,13519,380
95.2,95.3,36787,39553,381
95.32,95.62,29746,36158,382
95.55,95.86,27118,38629,383
95.65,96.56,9632,16967,384
95.68,95.73,36031,38692,385
95.68,95.75,18040,20225,386
95.74,95.79,26142,29130,387
95.75,96.15,9373,13104,388
95.77,96.03,14016,20673,389
95.82,96.07,22575,26006,390
95.84,95.9,31238,33494,391
95.99,96.42,22154,33699,392
96.3,96.37,10881,12778,393
96.35,96.5,16282,18170,394
96.35,96.49,33488,36357,395
96.41,96.6,13620,18698,396
96.47,96.56,19343,20494,397
96.5,96.78,19977,30757,398
96.5,96.79,9780,15354,399
96.54,96.67,35312,41078,400
96.7,96.75,31677,33223,401
99.38,100.52,6114,18486,402
99.45,99.8,21461,36691,403
99.72,99.75,32656,34080,404
99.77,99.79,33691,34728,405
99.77,99.79,45047,47303,406
99.8,100.2,20859,36943,407
100.08,100.08,37041,38556,408
100.08,100.12,31537,36123,409
100.17,100.18,32774,36283,410
100.2,100.41,33606,36351,411
100.41,100.44,29844,34037,412
100.81,101.2,13445,19448,413
101.27,101.39,9297,12324,414
101.55,102.25,6204,18477,415
101.55,101.59,12674,17535,416
101.63,102.27,11025,16988,417
101.72,101.84,35372,36901,418
101.99,102.16,33564,36666,419
102.16,102.17,34029,34701,420
102.18,102.19,31941,33097,421
102.55,103.78,7288,18970,422
102.55,103.79,14537,38016,423
102.89,103.59,25700,38590,424
103.09,103.19,42364,43112,425
103.27,103.72,31154,40673,426
103.51,104.46,7231,17087,427
103.58,103.72,27331,32484,428
103.62,103.72,23181,25216,429
103.76,103.78,21821,22309,430
103.9,104.3,19950,32768,431
106.88,107.04,15823,16993,432
108.62,109.84,7341,18292,433
108.81,109.84,14695,30640,434
108.99,109.11,33676,36168,435
109.1,109.91,8575,13471,436
109.16,109.21,31535,31730,437
109.18,109.26,19027,21052,438
109.24,109.4,30531,35528,439
109.25,109.53,26656,30518,440
109.32,110.05,11032,16841,441
109.37,109.76,18908,26857,442
109.48,109.88,25255,40299,443
109.63,109.69,23972,24631,444
109.78,109.86,17712,23080,445
109.8,109.94,29235,37935,446
109.89,110.14,23821,27345,447
109.93,110.02,22525,23959,448
109.95,110.74,6715,13753,449
110.1,110.22,8445,10314,450
110.28,110.37,22099,24734,451
110.34,110.72,8637,19033,452
110.6,110.69,17692,24016,453
110.72,111.04,13704,18195,454
110.91,111.85,8388,17972,455
110.99,111.04,34139,36360,456
111.05,111.09,10493,10895,457
111.06,111.83,16787,33051,458
111.1,111.12,13193,16257,459
111.12,111.31,16403,18174,460
111.26,111.36,33505,36904,461
111.29,111.35,44788,46597,462
111.36,111.44,42346,43635,463
111.37,111.83,25072,32281,464
111.47,111.67,36561,41130,465
111.73,111.78,34031,35599,466
112.05,112.11,10772,13082,467
112.07,112.76,21269,33275,468
112.12,112.8,10270,16659,469
112.85,112.91,8625,9466,470
117.31,117.95,11480,16727,471
117.74,117.77,30407,31906,472
117.84,117.9,24798,27130,473
117.94,117.97,12748,14269,474
117.97,119.16,6605,18461,475
118.04,118.22,8867,10947,476
118.06,118.17,19189,21244,477
118.06,118.13,30365,31941,478
118.07,118.08,34272,34633,479
118.09,119.17,13456,33287,480
118.31,118.35,35907,37096,481
118.37,118.99,23897,34873,482
118.73,119.09,28558,38532,483
118.82,119.36,11054,16742,484
118.84,118.9,23070,26249,485
119.02,119.14,20195,23288,486
119.36,119.59,11141,13927,487
119.66,120.13,9018,18483,488
119.73,119.96,7195,9468,489
119.75,119.8,34570,36294,490
119.83,119.96,25389,31060,491
119.96,120.13,18528,24794,492
120.06,120.12,28442,32011,493
120.48,121.35,8042,16420,494
120.5,121.16,22280,33053,495
120.65,121.67,7362,13640,496
120.91,121.07,31312,36914,497
121.02,121.17,32919,40301,498
121.06,121.28,24321,27037,499
121.29,121.33,22106,23669,500
121.44,121.84,20023,27411,501
121.5,121.61,35220,39207,502
121.72,121.77,35429,39157,503
121.72,122.03,8615,12984,504
121.78,121.93,14182,14559,505
121.91,122.04,20708,25539,506
122.08,122.91,7809,16770,507
122.21,122.38,7463,12300,508
122.23,122.28,21021,23406,509
122.31,122.82,17897,30621,510
122.76,123.11,9628,16786,511
122.8,122.85,23643,27127,512
