t_sec_min,t_sec_max,f_hz_min,f_hz_max,tonal_id
0.0,0.3,12188,14438,0
2.04,2.29,13500,16500,1
2.27,2.58,6938,9188,2
2.5,3.25,9375,13688,3
3.64,4.15,9750,13312,4
4.09,4.54,6938,12375,5
4.62,5.47,6938,13500,6
11.7,12.92,6938,15562,7
11.99,12.21,6938,9000,8
12.64,12.84,18375,20250,9
12.94,13.43,9562,15375,10
13.36,14.34,8250,15375,11
14.04,14.72,8062,13312,12
14.59,14.79,12750,16500,13
14.85,15.61,9750,15375,14
17.26,18.68,7688,18000,15
19.91,20.11,7312,9000,16
27.24,28.22,12000,18000,17
28.18,28.54,8250,11812,18
28.21,28.57,13500,18375,19
60.84,61.81,11062,17062,20
74.34,74.64,12188,13875,21
83.98,84.81,8625,13500,22
84.03,84.33,18375,20062,23
84.92,85.42,8250,12938,24
89.25,89.72,10688,15188,25
92.97,94.32,9188,17438,26
103.76,104.43,10688,17625,27
111.64,112.14,12000,15938,28
119.88,120.1,9375,12000,29
128.22,128.65,12000,14625,30
131.7,132.62,10125,15938,31
146.54,147.18,8250,14438,32
153.14,154.04,7125,18938,33
153.86,154.29,8812,10875,34
156.7,157.53,11625,16875,35
160.14,161.03,8438,15000,36
